Date,Open,High,Low,Close,Volume,Dividends,Stock Splits
2015-06-03,59.917,66.379,59.917,63.426,87538109,0.0,0
2015-06-04,60.088,61.158,59.061,59.96,89068164,0.0,0
2015-06-05,57.563,58.505,56.579,57.991,72931827,0.0,0
2015-06-08,58.633,58.719,56.579,56.664,22580707,0.0,0
2015-06-09,55.637,55.68,54.31,54.653,36029631,0.0,0
2015-06-10,55.166,57.349,54.653,56.151,18198514,0.0,0
2015-06-11,56.151,58.376,56.065,58.248,22215613,0.0,0
2015-06-12,58.376,58.804,57.777,58.034,16817690,0.0,0
2015-06-15,57.349,57.777,56.322,56.45,12294969,0.0,0
2015-06-16,55.723,55.765,55.295,55.551,11456786,0.0,0
2015-06-17,55.38,56.493,55.252,56.279,11816101,0.0,0
2015-06-18,56.493,56.878,56.108,56.621,8906034,0.0,0
2015-06-19,57.349,57.477,55.637,56.921,18575814,0.0,0
2015-06-22,55.765,56.407,55.466,55.637,15718522,0.0,0
2015-06-23,55.466,56.664,55.466,56.493,20806034,0.0,0
2015-06-24,56.193,56.579,55.979,56.065,8422942,0.0,0
2015-06-25,55.68,56.022,55.38,55.423,8778155,0.0,0
2015-06-26,55.252,55.637,54.61,54.653,13585200,0.0,0
2015-06-29,54.653,55.209,53.925,54.096,11415061,0.0,0
2015-06-30,54.738,55.68,54.567,55.038,9643743,0.0,0
2015-07-02,55.68,56.065,54.91,55.509,13765405,0.0,0
2015-07-03,55.551,55.637,54.61,54.824,10370760,0.0,0
2015-07-06,53.583,54.61,52.427,53.797,12841953,0.0,0
2015-07-07,52.812,53.754,52.641,53.198,16046865,0.0,0
2015-07-08,51.357,51.357,47.891,49.603,27352914,0.0,0
2015-07-09,48.575,52.984,48.575,51.956,24263706,0.0,0
2015-07-10,51.785,52.727,51.357,52.256,16416725,0.0,0
2015-07-13,51.785,54.011,51.571,53.968,7707997,0.0,0
2015-07-14,54.696,55.894,54.011,55.723,12609342,0.0,0
2015-07-15,56.022,56.921,55.808,56.793,10932862,0.0,0
2015-07-16,56.921,57.178,55.979,57.092,6768144,0.0,0
2015-07-17,57.349,57.777,56.579,57.649,15601224,0.0,0
2015-07-20,57.991,57.991,56.664,57.221,3616482,0.0,0
2015-07-21,56.921,57.392,55.937,56.151,5463148,0.0,0
2015-07-22,55.851,56.921,55.808,56.151,7299283,0.0,0
2015-07-23,56.493,56.621,55.38,55.509,6508918,0.0,0
2015-07-24,55.337,55.68,54.696,54.781,8420031,0.0,0
2015-07-27,54.353,54.867,53.925,54.396,9883958,0.0,0
2015-07-28,53.925,55.466,53.882,55.124,6947282,0.0,0
2015-07-29,54.781,55.637,54.61,55.38,8025722,0.0,0
2015-07-30,55.295,55.594,54.952,55.209,6138849,0.0,0
2015-07-31,54.824,55.551,54.781,55.295,4363212,0.0,0
2015-08-03,55.38,55.509,54.439,55.038,9768430,0.0,0
2015-08-04,55.423,55.423,53.925,54.61,3754604,0.0,0
2015-08-05,53.925,54.439,53.925,54.011,4107244,0.0,0
2015-08-06,53.198,54.268,53.198,54.054,4779272,0.0,0
2015-08-07,54.054,54.353,53.24,53.326,6924899,0.0,0
2015-08-10,52.598,53.155,51.657,53.112,11370064,0.0,0
2015-08-11,53.155,53.369,52.085,52.17,8106126,0.0,0
2015-08-12,51.443,51.871,51.272,51.486,8824387,0.0,0
2015-08-13,51.229,51.486,50.844,51.058,6641024,0.0,0
2015-08-14,50.887,51.315,50.501,50.801,5592989,0.0,0
2015-08-17,50.844,51.186,50.501,50.929,3817354,0.0,0
2015-08-18,50.929,51.186,50.073,50.159,4960051,0.0,0
2015-08-19,50.159,50.459,48.789,49.046,8568478,0.0,0
2015-08-20,48.062,49.003,48.062,48.447,7464344,0.0,0
2015-08-21,47.12,47.505,45.622,46.692,17814008,0.0,0
2015-08-24,45.366,45.366,43.397,43.525,14708128,0.0,0
2015-08-25,44.082,45.965,43.483,44.681,21461390,0.0,0
2015-08-26,43.825,44.338,42.883,43.055,16957577,0.0,0
2015-08-27,44.895,45.366,43.868,45.237,14967107,0.0,0
2015-08-28,46.222,46.222,45.023,45.023,12728337,0.0,0
2015-08-31,45.836,46.778,45.152,46.478,10901327,0.0,0
2015-09-01,45.965,46.65,45.665,45.965,9732722,0.0,0
2015-09-02,46.436,46.436,44.938,45.408,8253223,0.0,0
2015-09-04,46.35,46.778,45.965,46.179,11101747,0.0,0
2015-09-07,46.65,46.992,46.008,46.222,10421003,0.0,0
2015-09-08,46.949,47.591,46.436,47.078,14037257,0.0,0
2015-09-09,47.933,48.404,47.249,48.361,11833651,0.0,0
2015-09-10,47.42,48.832,47.42,48.618,15567434,0.0,0
2015-09-11,49.175,50.287,48.875,50.073,12038326,0.0,0
2015-09-14,51.229,51.229,49.517,50.587,10270949,0.0,0
2015-09-15,50.673,50.758,48.447,48.747,13840470,0.0,0
2015-09-16,49.645,50.715,49.089,50.544,12332432,0.0,0
2015-09-17,51.272,51.314,49.945,51.058,17790149,0.0,0
2015-09-18,52.042,56.365,51.742,53.454,77622470,0.0,0
2015-09-21,52.941,52.941,51.443,51.871,30348252,0.0,0
2015-09-22,51.44,51.957,50.192,50.666,18653736,0.35,0
2015-09-23,50.106,50.45,48.384,49.288,14849665,0.0,0
2015-09-24,49.159,49.331,48.212,48.341,10510267,0.0,0
2015-09-25,48.212,49.331,48.212,48.815,9967934,0.0,0
2015-09-29,47.351,47.781,46.791,47.652,10004163,0.0,0
2015-09-30,48.901,49.073,48.298,48.513,6068394,0.0,0
2015-10-02,49.073,49.546,48.083,48.987,12733976,0.0,0
2015-10-05,50.795,50.795,49.503,49.934,4651858,0.0,0
2015-10-06,50.45,50.579,48.987,49.546,4380203,0.0,0
2015-10-07,49.676,51.225,48.901,51.053,7000681,0.0,0
2015-10-08,50.795,50.795,49.977,50.321,4673145,0.0,0
2015-10-09,50.02,50.235,49.245,49.331,5893619,0.0,0
2015-10-12,49.417,49.417,48.212,48.427,8093852,0.0,0
2015-10-13,48.083,48.556,47.997,48.083,4990935,0.0,0
2015-10-14,47.781,48.212,47.652,47.825,4571742,0.0,0
2015-10-15,48.298,48.987,47.652,48.858,6005991,0.0,0
2015-10-16,48.944,49.331,48.642,49.288,4503996,0.0,0
2015-10-19,49.374,49.805,48.901,49.676,3503511,0.0,0
2015-10-20,49.891,49.891,48.815,49.073,3091958,0.0,0
2015-10-22,48.685,49.288,48.212,49.073,3873618,0.0,0
2015-10-23,49.719,49.977,48.815,49.934,5937508,0.0,0
2015-10-26,49.632,50.278,49.417,49.719,5332318,0.0,0
2015-10-27,49.116,49.546,48.642,48.772,3889712,0.0,0
2015-10-28,48.599,48.642,48.212,48.255,3296205,0.0,0
2015-10-29,48.728,48.728,47.222,47.351,6579527,0.0,0
2015-10-30,47.394,47.523,46.748,46.921,6340451,0.0,0
2015-11-02,46.318,46.318,45.07,45.242,4600870,0.0,0
2015-11-03,45.672,46.06,45.242,45.285,4833320,0.0,0
2015-11-04,45.285,47.738,45.285,47.093,6665916,0.0,0
2015-11-05,46.06,46.834,45.758,46.189,4621148,0.0,0
2015-11-06,45.457,45.715,45.371,45.457,2711406,0.0,0
2015-11-09,45.07,45.414,43.993,44.166,5007366,0.0,0
2015-11-10,43.907,43.993,43.391,43.477,7225813,0.0,0
2015-11-11,43.993,44.553,43.735,44.381,2776996,0.0,0
2015-11-12,43.95,46.447,43.95,46.318,6573640,0.0,0
2015-11-13,45.629,46.017,45.199,45.887,4184268,0.0,0
2015-11-16,44.768,45.285,44.51,44.811,4797399,0.0,0
2015-11-17,45.285,46.318,45.026,45.156,3384288,0.0,0
2015-11-18,45.199,45.457,44.94,45.113,2264794,0.0,0
2015-11-19,45.543,45.974,45.414,45.672,3436327,0.0,0
2015-11-20,45.07,46.232,44.897,46.103,3615475,0.0,0
2015-11-23,45.629,45.93,45.199,45.758,3064671,0.0,0
2015-11-24,45.328,45.5,44.897,45.07,1877461,0.0,0
2015-11-25,44.897,44.94,44.252,44.553,4190130,0.0,0
2015-11-26,45.199,45.887,44.467,44.639,5337870,0.0,0
2015-11-27,44.854,44.897,43.735,43.735,4820311,0.0,0
2015-11-30,44.166,44.295,43.391,43.52,6301662,0.0,0
2015-12-01,43.649,44.854,43.649,44.596,6449396,0.0,0
2015-12-02,45.156,46.06,44.94,45.715,7582651,0.0,0
2015-12-03,45.113,45.801,45.07,45.543,2846810,0.0,0
2015-12-04,45.07,45.199,44.553,45.07,4136950,0.0,0
2015-12-07,44.854,45.414,44.725,44.811,3510571,0.0,0
2015-12-08,44.338,44.768,43.778,44.381,4088350,0.0,0
2015-12-09,43.606,44.639,43.606,44.381,2995552,0.0,0
2015-12-10,43.993,44.897,43.993,44.424,2721513,0.0,0
2015-12-11,44.768,44.94,43.821,44.036,4742307,0.0,0
2015-12-14,43.391,43.993,43.132,43.907,4657605,0.0,0
2015-12-15,43.563,43.907,43.262,43.391,5046945,0.0,0
2015-12-16,43.907,44.338,43.477,44.209,3811737,0.0,0
2015-12-17,44.209,44.51,43.95,44.252,4454641,0.0,0
2015-12-18,43.52,43.95,43.477,43.821,5824496,0.0,0
2015-12-21,43.305,43.563,43.262,43.348,2751197,0.0,0
2015-12-22,43.305,43.821,43.219,43.692,2248158,0.0,0
2015-12-23,43.434,44.166,43.434,44.036,3158451,0.0,0
2015-12-24,44.079,44.338,43.907,43.993,1230038,0.0,0
2015-12-28,43.778,43.778,43.089,43.219,2274512,0.0,0
2015-12-29,43.649,43.993,43.176,43.907,2520597,0.0,0
2015-12-30,44.467,44.596,43.778,43.907,2239389,0.0,0
2015-12-31,43.907,43.907,43.262,43.391,1810017,0.0,0
2016-01-04,43.132,43.348,42.185,42.401,5016031,0.0,0
2016-01-05,42.444,42.573,41.841,42.013,3157617,0.0,0
2016-01-06,42.013,42.444,40.722,40.808,6021945,0.0,0
2016-01-07,40.507,41.066,39.258,40.937,0,0.0,0
2016-01-08,41.755,42.013,40.851,41.54,6838369,0.0,0
2016-01-11,40.593,40.636,39.947,40.033,7432132,0.0,0
2016-01-12,40.119,40.377,39.56,39.947,3881245,0.0,0
2016-01-13,40.894,41.109,39.99,40.636,6811331,0.0,0
2016-01-14,39.474,40.291,38.914,39.818,5076365,0.0,0
2016-01-15,39.258,39.689,38.613,38.656,5834649,0.0,0
2016-01-18,37.967,39.0,37.881,38.397,5253959,0.0,0
2016-01-19,38.311,38.526,37.536,38.44,5755107,0.0,0
2016-01-20,37.364,37.364,35.685,35.728,12560815,0.0,0
2016-01-21,36.073,37.02,33.921,34.007,14764726,0.0,0
2016-01-22,34.738,34.868,34.308,34.394,10249941,0.0,0
2016-01-25,34.954,34.954,33.791,34.437,8090347,0.0,0
2016-01-26,33.576,33.834,33.189,33.447,7510929,0.0,0
2016-01-27,34.007,34.093,33.447,33.705,8544504,0.0,0
2016-01-28,33.705,34.179,32.887,33.791,7651561,0.0,0
2016-01-29,33.791,35.944,33.619,35.858,9933776,0.0,0
2016-02-01,35.987,36.03,34.781,35.513,10326512,0.0,0
2016-02-02,34.868,35.556,34.523,35.384,6026010,0.0,0
2016-02-03,35.126,35.126,33.921,34.308,7127200,0.0,0
2016-02-04,34.437,35.169,34.179,34.265,6844487,0.0,0
2016-02-05,34.868,35.126,34.179,34.609,4202385,0.0,0
2016-02-11,33.146,34.136,33.017,33.877,6179917,0.0,0
2016-02-12,33.447,34.437,33.447,33.576,6239600,0.0,0
2016-02-15,33.921,34.609,33.921,34.523,5516159,0.0,0
2016-02-16,34.437,35.212,33.834,35.04,6592509,0.0,0
2016-02-17,35.298,35.685,34.48,34.695,2667365,0.0,0
2016-02-18,35.298,35.384,34.738,34.825,4076118,0.0,0
2016-02-19,34.825,35.728,34.825,35.556,4455125,0.0,0
2016-02-22,35.728,36.503,35.556,35.901,3507273,0.0,0
2016-02-23,35.987,36.159,35.556,35.599,6930706,0.0,0
2016-02-24,35.298,35.556,34.566,35.126,3678562,0.0,0
2016-02-25,35.126,35.126,33.705,33.791,3945744,0.0,0
2016-02-26,34.437,35.126,34.093,34.825,5531972,0.0,0
2016-02-29,34.781,34.825,34.179,34.265,4481668,0.0,0
2016-03-01,34.351,35.427,34.308,35.384,21954658,0.0,0
2016-03-02,36.46,37.536,36.288,37.02,14242697,0.0,0
2016-03-03,37.407,37.536,36.762,37.278,7559180,0.0,0
2016-03-04,37.407,39.387,37.278,39.258,12989724,0.0,0
2016-03-07,40.033,40.033,39.258,39.646,10056725,0.0,0
2016-03-08,39.43,39.904,39.258,39.43,6660562,0.0,0
2016-03-09,38.914,39.344,38.44,38.785,5434903,0.0,0
2016-03-10,39.043,39.517,38.57,38.656,3389985,0.0,0
2016-03-11,38.139,39.387,38.053,39.129,3104939,0.0,0
2016-03-14,39.603,41.195,39.474,41.023,10855772,0.0,0
2016-03-15,40.507,40.722,39.947,40.55,5496930,0.0,0
2016-03-16,40.464,40.937,40.377,40.636,3715416,0.0,0
2016-03-17,41.325,41.368,40.851,41.281,4141094,0.0,0
2016-03-18,41.152,41.152,39.043,40.291,24551549,0.0,0
2016-03-21,40.636,42.272,40.377,40.894,11619048,0.0,0
2016-03-22,40.851,42.917,40.808,42.702,11751561,0.0,0
2016-03-23,42.702,42.702,41.884,42.487,7034151,0.0,0
2016-03-24,42.616,42.616,41.755,42.099,11549641,0.0,0
2016-03-29,42.616,42.616,41.97,42.401,3321296,0.0,0
2016-03-30,43.046,43.735,43.003,43.305,8169176,0.0,0
2016-03-31,42.96,43.434,42.917,43.003,5040347,0.0,0
2016-04-01,42.917,43.219,42.444,42.53,5663670,0.0,0
2016-04-05,41.798,42.616,41.712,42.358,7948099,0.0,0
2016-04-06,41.97,43.046,41.97,42.831,5523398,0.0,0
2016-04-07,42.788,43.477,42.315,42.401,11832647,0.0,0
2016-04-08,41.583,43.089,41.583,43.046,5838902,0.0,0
2016-04-11,42.96,43.778,42.745,43.52,3499493,0.0,0
2016-04-12,43.046,43.649,42.659,42.831,4785641,0.0,0
2016-04-13,42.917,43.907,42.917,43.606,8628162,0.0,0
2016-04-14,43.778,44.166,43.52,43.907,3344750,0.0,0
2016-04-15,43.692,44.768,43.606,44.553,4181435,0.0,0
2016-04-18,43.692,44.252,43.262,43.563,5541223,0.0,0
2016-04-19,44.424,44.768,44.079,44.467,4112711,0.0,0
2016-04-20,44.424,44.897,44.338,44.596,6085028,0.0,0
2016-04-21,44.553,45.629,44.553,45.586,5624090,0.0,0
2016-04-22,44.639,45.07,44.596,44.94,3515965,0.0,0
2016-04-25,44.381,44.983,44.166,44.854,3403785,0.0,0
2016-04-26,45.672,45.844,44.553,45.586,4735667,0.0,0
2016-04-27,45.371,46.275,45.156,46.06,6880814,0.0,0
2016-04-28,46.49,47.351,46.146,46.533,10498460,0.0,0
2016-04-29,45.801,46.275,45.113,45.844,6461671,0.0,0
2016-05-03,46.146,46.146,43.606,43.649,8500399,0.0,0
2016-05-04,43.219,43.649,43.003,43.176,5666689,0.0,0
2016-05-05,43.52,43.52,42.573,42.788,5669865,0.0,0
2016-05-06,42.401,42.659,41.669,41.755,8058381,0.0,0
2016-05-09,42.185,42.315,41.583,41.841,3776696,0.0,0
2016-05-10,40.98,42.142,40.98,41.411,6550266,0.0,0
2016-05-11,41.411,41.497,40.464,40.507,5771260,0.0,0
2016-05-12,40.119,40.334,39.904,39.947,4031345,0.0,0
2016-05-13,39.904,39.904,38.871,39.344,8334078,0.0,0
2016-05-16,39.172,39.56,39.086,39.344,3143529,0.0,0
2016-05-17,39.172,39.947,39.172,39.904,5902167,0.0,0
2016-05-18,39.64,39.904,39.199,39.375,5444515,1.05,0
2016-05-19,39.419,39.596,38.803,39.155,4019920,0.0,0
2016-05-20,39.023,40.741,38.935,40.388,6140295,0.0,0
2016-05-23,40.477,40.477,39.331,39.86,5029429,0.0,0
2016-05-24,40.344,40.829,40.256,40.785,5633140,0.0,0
2016-05-25,41.754,42.459,41.401,42.018,11554702,0.0,0
2016-05-26,41.93,42.503,41.534,42.37,4601936,0.0,0
2016-05-27,42.326,42.811,41.93,42.459,5436063,0.0,0
2016-05-30,42.194,43.295,41.974,42.855,4111437,0.0,0
2016-05-31,42.855,43.251,42.679,42.855,8303032,0.0,0
2016-06-01,43.163,43.251,42.767,43.163,4580576,0.0,0
2016-06-02,42.943,43.207,42.414,43.075,6785524,0.0,0
2016-06-03,43.207,43.604,43.031,43.428,5294739,0.0,0
2016-06-06,43.251,44.485,43.251,44.264,3425169,0.0,0
2016-06-07,44.925,45.365,44.0,44.396,5210290,0.0,0
2016-06-08,44.044,44.396,43.516,43.56,6321718,0.0,0
2016-06-10,43.339,43.956,42.987,43.075,7860785,0.0,0
2016-06-13,41.886,42.238,41.622,41.93,6356252,0.0,0
2016-06-14,41.93,42.282,41.578,41.754,2379880,0.0,0
2016-06-15,40.917,42.062,40.917,41.71,2905755,0.0,0
2016-06-16,41.093,41.137,40.433,40.829,4328877,0.0,0
2016-06-17,41.137,41.401,40.829,41.137,4464986,0.0,0
2016-06-20,41.93,42.282,41.798,42.15,4733146,0.0,0
2016-06-21,41.798,42.679,41.798,42.547,3364709,0.0,0
2016-06-22,42.282,42.679,41.93,42.238,3608349,0.0,0
2016-06-23,42.591,42.679,42.238,42.547,3951052,0.0,0
2016-06-24,41.71,42.547,40.08,41.181,14418993,0.0,0
2016-06-27,40.344,40.961,40.256,40.521,8374677,0.0,0
2016-06-28,39.464,40.653,39.419,40.565,5884578,0.0,0
2016-06-29,40.961,42.106,40.609,41.974,5197579,0.0,0
2016-06-30,42.282,42.767,42.15,42.635,8206611,0.0,0
2016-07-04,43.031,44.881,42.811,44.441,11656891,0.0,0
2016-07-05,44.308,44.308,43.472,43.56,4607741,0.0,0
2016-07-06,42.723,43.516,42.635,43.251,4019164,0.0,0
2016-07-07,43.868,44.396,43.648,43.956,4518558,0.0,0
2016-07-08,43.428,43.648,42.987,43.383,2640998,0.0,0
2016-07-11,44.485,44.573,43.78,44.044,4024342,0.0,0
2016-07-12,44.705,45.409,44.308,45.365,9368906,0.0,0
2016-07-13,45.365,45.938,44.969,45.189,4753324,0.0,0
2016-07-14,45.321,45.982,44.881,45.85,4451103,0.0,0
2016-07-15,45.806,46.511,45.409,46.29,5498954,0.0,0
2016-07-18,46.687,47.347,46.511,46.863,4038006,0.0,0
2016-07-19,46.511,46.687,46.026,46.467,3522684,0.0,0
2016-07-20,46.202,47.303,46.114,47.215,6352336,0.0,0
2016-07-21,47.436,48.669,47.127,48.228,8390466,0.0,0
2016-07-22,47.7,48.316,47.656,48.184,9326637,0.0,0
2016-07-25,48.669,49.197,48.272,48.669,5373288,0.0,0
2016-07-26,48.184,49.197,48.14,49.021,5786723,0.0,0
2016-07-27,49.021,49.638,48.669,49.506,7785704,0.0,0
2016-07-28,49.329,50.122,49.329,49.77,6832280,0.0,0
2016-07-29,49.726,49.814,48.449,48.801,5844926,0.0,0
2016-08-01,49.285,49.902,48.977,49.241,4406271,0.0,0
2016-08-02,49.241,49.241,49.241,49.241,0,0.0,0
2016-08-03,48.449,48.537,47.391,47.48,6257563,0.0,0
2016-08-04,47.612,48.36,47.612,47.92,3030744,0.0,0
2016-08-05,48.184,48.537,48.14,48.537,7050360,0.0,0
2016-08-08,48.801,50.034,48.228,49.77,5791058,0.0,0
2016-08-09,49.506,50.298,49.506,50.122,3729793,0.0,0
2016-08-10,50.915,51.091,50.431,50.915,8725513,0.0,0
2016-08-11,50.871,51.223,50.034,50.254,5512509,0.0,0
2016-08-12,50.21,50.21,48.14,48.316,15224411,0.0,0
2016-08-15,48.493,49.153,48.272,48.272,10108661,0.0,0
2016-08-16,48.228,48.889,48.228,48.449,5532263,0.0,0
2016-08-17,48.36,48.449,47.568,47.568,7673288,0.0,0
2016-08-18,47.568,48.625,47.436,47.92,4643731,0.0,0
2016-08-19,48.14,48.845,48.14,48.493,6742291,0.0,0
2016-08-22,48.713,49.285,48.36,48.889,4683635,0.0,0
2016-08-23,49.329,49.682,49.153,49.241,5495305,0.0,0
2016-08-24,49.241,49.329,47.744,48.184,6471422,0.0,0
2016-08-25,47.744,48.404,47.656,48.316,5733093,0.0,0
2016-08-26,48.36,48.845,48.096,48.581,4541231,0.0,0
2016-08-29,48.449,48.713,47.832,48.008,2660108,0.0,0
2016-08-30,48.14,48.405,47.876,48.008,4810753,0.0,0
2016-08-31,48.14,48.272,47.744,48.008,5034720,0.0,0
2016-09-01,47.612,48.052,47.347,47.876,4412252,0.0,0
2016-09-02,48.096,48.316,47.656,48.228,4962360,0.0,0
2016-09-05,49.241,49.638,48.757,49.329,10568943,0.0,0
2016-09-06,49.329,49.902,49.021,49.55,6581441,0.0,0
2016-09-07,49.153,50.122,49.153,49.946,7021156,0.0,0
2016-09-08,49.55,50.827,49.329,50.739,8531434,0.0,0
2016-09-09,50.322,52.982,50.322,51.83,10544572,0.38,0
2016-09-12,50.544,51.164,49.701,49.879,8985764,0.0,0
2016-09-13,50.366,50.854,49.302,49.302,8189972,0.0,0
2016-09-14,49.081,49.967,49.036,49.258,4617048,0.0,0
2016-09-15,49.613,50.411,49.568,49.923,7007357,0.0,0
2016-09-19,50.056,50.544,49.746,50.499,4550111,0.0,0
2016-09-20,50.012,50.145,49.524,49.834,5425361,0.0,0
2016-09-21,49.524,50.233,49.48,49.701,5421007,0.0,0
2016-09-22,50.366,51.253,50.233,50.455,5929944,0.0,0
2016-09-23,50.854,51.031,50.366,50.632,4521415,0.0,0
2016-09-26,50.056,50.322,49.657,50.012,3447165,0.0,0
2016-09-27,50.366,50.721,49.923,50.233,4808650,0.0,0
2016-09-28,49.746,50.632,49.746,50.632,3369733,0.0,0
2016-09-29,50.854,51.031,50.411,50.854,3428322,0.0,0
2016-09-30,49.746,50.233,49.657,50.189,6364642,0.0,0
2016-10-03,50.81,50.987,50.278,50.632,4169784,0.0,0
2016-10-04,50.898,50.898,50.1,50.411,3321955,0.0,0
2016-10-05,50.278,50.765,49.923,50.322,3106786,0.0,0
2016-10-06,50.499,50.632,49.967,50.1,3784104,0.0,0
2016-10-07,50.632,50.632,49.701,50.366,4339469,0.0,0
2016-10-11,50.632,50.721,48.327,48.859,9604434,0.0,0
2016-10-12,48.327,48.682,48.194,48.549,4136125,0.0,0
2016-10-13,48.46,48.77,48.017,48.46,4040227,0.0,0
2016-10-14,48.504,49.169,48.504,48.815,2817727,0.0,0
2016-10-17,49.036,49.036,48.061,48.15,2467523,0.0,0
2016-10-18,48.15,48.992,48.15,48.815,3616171,0.0,0
2016-10-19,48.859,49.081,48.105,48.637,3197619,0.0,0
2016-10-20,48.992,48.992,48.504,48.77,2531331,0.0,0
2016-10-21,48.77,48.77,48.77,48.77,0,0.0,0
2016-10-24,49.48,49.48,48.549,49.169,6840669,0.0,0
2016-10-25,49.524,49.524,49.081,49.169,3498191,0.0,0
2016-10-26,48.992,49.347,48.77,48.992,3730372,0.0,0
2016-10-27,49.435,49.613,48.726,49.302,4708553,0.0,0
2016-10-28,48.77,49.701,48.77,49.391,5692558,0.0,0
2016-10-31,49.214,51.164,49.214,50.943,11500059,0.0,0
2016-11-01,51.43,52.051,51.43,51.83,6813278,0.0,0
2016-11-02,51.83,51.83,51.164,51.785,6114461,0.0,0
2016-11-03,51.43,51.874,51.12,51.386,5255571,0.0,0
2016-11-04,51.386,51.785,51.209,51.342,4150273,0.0,0
2016-11-07,48.77,48.77,46.553,46.819,25282591,0.0,0
2016-11-08,46.731,47.884,46.731,47.44,9174758,0.0,0
2016-11-09,47.573,47.573,45.09,45.933,16056154,0.0,0
2016-11-10,46.509,46.997,46.465,46.908,6892237,0.0,0
2016-11-11,46.465,46.686,45.755,46.42,6200852,0.0,0
2016-11-14,45.977,46.199,45.445,45.445,7037285,0.0,0
2016-11-15,45.223,46.021,45.223,45.401,5196217,0.0,0
2016-11-16,45.223,45.667,44.957,44.957,5442549,0.0,0
2016-11-17,44.869,45.135,44.425,45.135,7331570,0.0,0
2016-11-18,44.78,45.09,44.558,45.002,5390175,0.0,0
2016-11-21,45.002,45.578,44.691,45.002,3301783,0.0,0
2016-11-22,45.268,46.066,45.223,45.844,4813028,0.0,0
2016-11-23,46.11,46.199,45.711,46.021,3453783,0.0,0
2016-11-24,45.667,45.888,45.312,45.667,1650244,0.0,0
2016-11-25,45.312,45.844,45.268,45.401,3215472,0.0,0
2016-11-28,45.046,46.021,45.046,45.667,4686011,0.0,0
2016-11-29,45.8,46.066,45.534,46.066,5550875,0.0,0
2016-11-30,46.066,47.085,45.755,47.085,7702052,0.0,0
2016-12-01,46.997,46.997,46.287,46.642,6643126,0.0,0
2016-12-02,46.465,46.465,45.8,45.8,3919900,0.0,0
2016-12-05,46.376,46.376,44.425,45.223,11276946,0.0,0
2016-12-06,45.223,45.356,44.736,44.957,9576725,0.0,0
2016-12-07,45.179,45.489,44.957,45.268,18678944,0.0,0
2016-12-08,45.844,46.243,45.711,46.11,20539701,0.0,0
2016-12-09,46.42,47.085,46.021,46.952,12162600,0.0,0
2016-12-12,46.686,46.997,45.223,45.489,9632662,0.0,0
2016-12-13,45.179,45.622,44.824,45.578,4666154,0.0,0
2016-12-14,45.489,45.977,45.356,45.667,4630360,0.0,0
2016-12-15,44.78,44.913,44.337,44.558,6989502,0.0,0
2016-12-16,45.002,45.002,44.337,44.647,6145727,0.0,0
2016-12-19,44.381,44.691,43.893,44.071,4867107,0.0,0
2016-12-20,43.672,43.805,43.007,43.184,6225800,0.0,0
2016-12-21,42.962,43.406,42.918,43.051,4082745,0.0,0
2016-12-22,42.741,43.095,42.474,42.829,4636916,0.0,0
2016-12-23,42.563,42.829,41.987,42.031,6150548,0.0,0
2016-12-28,41.765,42.031,41.233,41.765,9217428,0.0,0
2016-12-29,41.41,41.854,41.233,41.676,6279947,0.0,0
2016-12-30,41.676,42.563,41.632,42.164,4038695,0.0,0
2017-01-03,42.297,43.45,41.854,42.785,5592216,0.0,0
2017-01-04,43.273,43.627,43.095,43.228,4787090,0.0,0
2017-01-05,43.76,43.76,43.095,43.583,5669718,0.0,0
2017-01-06,43.893,44.337,43.539,43.893,8472937,0.0,0
2017-01-09,44.071,44.514,44.026,44.204,6792161,0.0,0
2017-01-10,44.558,44.913,44.159,44.913,8117427,0.0,0
2017-01-11,45.046,45.977,44.78,45.977,7453279,0.0,0
2017-01-12,45.844,45.977,45.046,45.09,8622107,0.0,0
2017-01-13,44.78,44.957,44.337,44.603,9292971,0.0,0
2017-01-16,44.159,44.159,43.273,43.982,11828857,0.0,0
2017-01-17,44.47,45.135,44.292,44.957,8998831,0.0,0
2017-01-18,44.957,46.465,44.957,46.465,14036621,0.0,0
2017-01-19,46.42,46.465,45.844,46.199,8823259,0.0,0
2017-01-20,45.844,45.888,45.09,45.179,13559536,0.0,0
2017-01-23,45.8,45.844,44.647,44.736,5990655,0.0,0
2017-01-24,44.558,44.736,44.337,44.647,5880383,0.0,0
2017-01-25,45.268,45.268,44.514,44.647,5478235,0.0,0
2017-01-26,44.957,45.578,44.736,45.445,5252698,0.0,0
2017-01-27,45.268,45.578,45.046,45.578,2323246,0.0,0
2017-02-01,45.135,45.622,44.78,45.489,4845083,0.0,0
2017-02-02,45.489,45.755,45.223,45.445,3484802,0.0,0
2017-02-03,45.489,45.622,44.913,45.445,5184825,0.0,0
2017-02-06,45.667,45.844,45.179,45.489,3460490,0.0,0
2017-02-07,45.844,45.933,45.445,45.755,3733264,0.0,0
2017-02-08,45.933,46.243,45.534,46.021,7530532,0.0,0
2017-02-09,46.11,46.332,45.888,46.11,6006167,0.0,0
2017-02-10,46.42,46.819,46.332,46.686,6065160,0.0,0
2017-02-13,46.598,46.819,46.154,46.465,2823268,0.0,0
2017-02-14,46.553,46.731,46.154,46.642,4167773,0.0,0
2017-02-15,46.642,47.13,46.332,46.819,5955503,0.0,0
2017-02-16,46.332,46.553,45.755,46.11,7466908,0.0,0
2017-02-17,46.021,46.42,45.8,46.243,3407828,0.0,0
2017-02-20,46.243,46.42,46.066,46.332,2321074,0.0,0
2017-02-21,46.42,47.263,46.11,46.731,6962720,0.0,0
2017-02-22,47.174,48.238,46.775,47.263,8688370,0.0,0
2017-02-23,47.219,47.706,47.041,47.307,4737015,0.0,0
2017-02-24,47.307,47.662,47.174,47.396,3509942,0.0,0
2017-02-27,46.864,47.352,46.731,47.263,4216230,0.0,0
2017-02-28,47.263,47.795,46.819,46.819,5675278,0.0,0
2017-03-01,47.174,47.218,46.332,47.13,5457187,0.0,0
2017-03-02,47.396,47.529,46.243,46.376,8490449,0.0,0
2017-03-03,46.11,46.42,45.489,45.667,6440246,0.0,0
2017-03-06,45.977,46.066,45.09,45.268,5151269,0.0,0
2017-03-07,45.844,45.844,45.135,45.356,6872417,0.0,0
2017-03-08,45.223,45.578,45.09,45.401,6107432,0.0,0
2017-03-09,45.312,45.312,44.869,45.046,5641254,0.0,0
2017-03-10,45.312,45.933,45.046,45.223,5048216,0.0,0
2017-03-13,45.445,45.578,45.179,45.445,10287615,0.0,0
2017-03-14,45.445,45.844,45.179,45.844,11177872,0.0,0
2017-03-15,45.667,45.977,45.445,45.755,7425414,0.0,0
2017-03-16,46.332,46.553,45.977,46.199,8011427,0.0,0
2017-03-17,46.021,46.598,46.021,46.376,7882794,0.0,0
2017-03-20,46.376,46.997,46.376,46.997,6532439,0.0,0
2017-03-21,46.997,47.618,46.465,47.485,7828432,0.0,0
2017-03-22,47.44,47.44,46.908,46.997,6431785,0.0,0
2017-03-23,46.952,47.928,46.775,47.839,15101037,0.0,0
2017-03-24,47.972,48.371,47.928,48.061,14162434,0.0,0
2017-03-27,47.307,47.928,47.13,47.839,13723129,0.0,0
2017-03-28,47.573,47.972,47.219,47.396,5290167,0.0,0
2017-03-29,47.263,47.396,46.553,46.775,10302755,0.0,0
2017-03-30,46.553,46.686,46.332,46.509,8768732,0.0,0
2017-03-31,46.553,46.819,46.199,46.42,5694511,0.0,0
2017-04-03,46.465,46.775,46.376,46.731,7109513,0.0,0
2017-04-05,46.952,47.263,46.642,47.085,17488978,0.0,0
2017-04-06,46.819,47.573,46.731,47.44,10586190,0.0,0
2017-04-07,47.263,47.573,47.085,47.573,6428337,0.0,0
2017-04-10,47.618,48.061,47.485,47.706,4390931,0.0,0
2017-04-11,47.485,47.972,47.396,47.751,5455378,0.0,0
2017-04-12,48.194,49.036,47.795,48.593,8976420,0.0,0
2017-04-13,48.017,49.391,48.017,49.036,7686905,0.0,0
2017-04-18,49.169,49.169,48.15,48.283,6454365,0.0,0
2017-04-19,48.061,48.726,47.928,48.327,7264789,0.0,0
2017-04-20,47.928,49.169,47.928,48.549,3827708,0.0,0
2017-04-21,48.903,48.903,48.371,48.593,5104525,0.0,0
2017-04-24,48.105,48.46,47.884,48.327,6591982,0.0,0
2017-04-25,48.061,48.948,48.061,48.903,3500488,0.0,0
2017-04-26,49.036,49.214,48.948,49.081,4659221,0.0,0
2017-04-27,48.637,49.214,48.593,49.169,3403902,0.0,0
2017-04-28,49.48,49.79,49.169,49.48,5648440,0.0,0
2017-05-02,49.967,49.967,49.125,49.701,4428555,0.0,0
2017-05-04,50.189,50.189,49.258,49.967,9295449,0.0,0
2017-05-05,49.657,50.145,49.302,49.834,8479308,0.0,0
2017-05-08,49.657,50.1,49.657,50.012,4154409,0.0,0
2017-05-09,49.923,50.145,49.48,50.1,7130422,0.0,0
2017-05-10,50.145,50.544,50.1,50.1,5523078,0.0,0
2017-05-11,50.366,50.765,50.145,50.721,5365472,0.0,0
2017-05-12,50.721,51.076,50.588,50.898,4158565,0.0,0
2017-05-15,51.031,51.209,50.677,50.943,5100771,0.0,0
2017-05-16,49.766,51.395,49.766,51.35,5426539,1.15,0
2017-05-17,51.938,52.345,51.35,51.983,6767676,0.0,0
2017-05-18,51.757,51.848,51.395,51.712,7039966,0.0,0
2017-05-19,51.576,51.848,51.44,51.802,3577715,0.0,0
2017-05-22,51.983,52.662,51.802,52.119,4344445,0.0,0
2017-05-23,52.029,52.074,51.214,51.802,6169235,0.0,0
2017-05-24,51.305,51.983,51.169,51.848,3771544,0.0,0
2017-05-25,52.119,52.391,51.938,51.983,4410423,0.0,0
2017-05-26,52.481,52.481,51.938,52.164,3462940,0.0,0
2017-05-29,52.029,52.481,51.983,52.3,5268856,0.0,0
2017-05-31,52.029,52.933,51.938,52.933,11056128,0.0,0
2017-06-01,52.888,53.341,52.752,53.295,5757287,0.0,0
2017-06-02,53.069,54.019,53.069,53.974,6454936,0.0,0
2017-06-05,54.2,54.291,53.838,54.2,4824727,0.0,0
2017-06-06,54.291,55.467,54.2,55.467,7352980,0.0,0
2017-06-07,55.648,56.281,54.743,55.331,7816427,0.0,0
2017-06-08,55.874,55.874,54.788,55.241,4583861,0.0,0
2017-06-09,54.834,55.648,54.698,55.241,8730212,0.0,0
2017-06-12,55.06,55.196,54.472,55.015,6140627,0.0,0
2017-06-13,55.377,55.557,54.607,55.557,4983220,0.0,0
2017-06-14,56.055,56.055,55.241,55.241,6102504,0.0,0
2017-06-15,54.788,55.286,54.155,55.06,5948694,0.0,0
2017-06-16,54.924,56.01,54.834,55.286,11904165,0.0,0
2017-06-19,55.286,55.829,54.788,55.557,3818470,0.0,0
2017-06-20,55.422,56.1,55.422,55.965,5796394,0.0,0
2017-06-21,55.874,56.281,55.241,55.874,5304725,0.0,0
2017-06-22,55.422,56.01,55.422,55.738,5318515,0.0,0
2017-06-23,55.738,55.829,55.331,55.829,4956308,0.0,0
2017-06-26,56.01,56.1,55.557,55.965,3312111,0.0,0
2017-06-27,56.1,56.1,55.603,55.965,5750431,0.0,0
2017-06-28,55.331,55.965,55.331,55.738,6994818,0.0,0
2017-06-29,55.965,56.055,55.648,55.829,12843380,0.0,0
2017-06-30,54.969,55.512,54.924,55.331,9686332,0.0,0
2017-07-03,55.15,55.603,55.105,55.196,4124414,0.0,0
2017-07-04,54.743,54.834,53.386,53.838,8127902,0.0,0
2017-07-05,54.064,54.064,53.16,53.16,6711136,0.0,0
2017-07-06,53.838,54.517,53.657,53.793,8544836,0.0,0
2017-07-07,55.015,55.015,54.11,54.381,5487645,0.0,0
2017-07-10,55.15,55.377,54.517,55.105,5822295,0.0,0
2017-07-11,55.331,55.557,54.924,55.557,5647320,0.0,0
2017-07-12,56.01,56.1,55.331,55.512,3428978,0.0,0
2017-07-13,56.1,56.327,55.784,56.055,4936022,0.0,0
2017-07-14,56.055,56.1,55.784,56.1,2898934,0.0,0
2017-07-17,56.281,56.372,55.829,55.919,5544829,0.0,0
2017-07-18,55.557,56.281,55.557,56.191,7717582,0.0,0
2017-07-19,56.01,56.1,55.648,55.919,6761537,0.0,0
2017-07-20,55.693,56.01,55.467,55.557,3151957,0.0,0
2017-07-21,56.327,56.553,55.693,56.055,26346894,0.0,0
2017-07-24,56.055,56.372,55.965,56.327,3929012,0.0,0
2017-07-25,56.327,56.734,56.191,56.598,4984127,0.0,0
2017-07-26,56.598,56.96,56.372,56.598,7105330,0.0,0
2017-07-27,56.462,57.231,56.462,56.824,6359023,0.0,0
2017-07-28,57.05,57.05,56.734,56.824,4976483,0.0,0
2017-07-31,56.689,57.231,56.643,57.231,6023783,0.0,0
2017-08-01,57.412,58.634,57.231,58.498,9805420,0.0,0
2017-08-02,58.815,59.177,58.589,58.86,8795237,0.0,0
2017-08-03,58.86,58.86,58.001,58.815,6457946,0.0,0
2017-08-04,60.263,61.439,59.901,61.348,22329585,0.0,0
2017-08-07,61.801,62.389,61.439,62.389,9954679,0.0,0
2017-08-08,61.891,63.158,61.756,63.158,10741935,0.0,0
2017-08-09,63.158,63.792,62.299,63.339,8048688,0.0,0
2017-08-10,63.565,63.565,61.71,62.48,10012722,0.0,0
2017-08-11,61.529,62.841,61.213,61.575,9374940,0.0,0
2017-08-14,62.253,62.344,61.394,61.937,3583146,0.0,0
2017-08-15,62.163,62.163,60.76,61.122,5601057,0.0,0
2017-08-16,61.077,62.208,60.896,62.208,6860974,0.0,0
2017-08-17,61.891,62.389,61.122,61.394,3794907,0.0,0
2017-08-18,60.534,61.077,60.036,60.715,4606081,0.0,0
2017-08-21,60.534,60.941,60.217,60.76,4216498,0.0,0
2017-08-22,61.891,61.982,61.348,61.575,4394208,0.0,0
2017-08-23,61.575,61.575,61.575,61.575,0,0.0,0
2017-08-24,62.48,62.48,61.303,61.303,8617611,0.0,0
2017-08-25,61.303,62.163,61.077,61.756,6550879,0.0,0
2017-08-28,61.349,61.982,61.349,61.801,4143962,0.0,0
2017-08-29,61.349,61.439,60.806,61.258,3258456,0.0,0
2017-08-30,61.801,62.163,61.484,61.846,6973452,0.0,0
2017-08-31,62.118,62.163,61.529,62.163,9176550,0.0,0
2017-09-01,61.756,61.982,61.213,61.484,4601313,0.0,0
2017-09-04,61.275,61.275,60.501,60.82,2763182,0.42,0
2017-09-05,60.637,61.093,60.091,60.137,5802913,0.0,0
2017-09-06,60.137,60.182,59.454,60.0,8203359,0.0,0
2017-09-07,60.956,60.956,59.681,60.091,6529852,0.0,0
2017-09-08,60.956,62.504,60.319,62.231,14806327,0.0,0
2017-09-11,62.549,62.959,62.185,62.276,4533946,0.0,0
2017-09-12,62.458,62.458,61.138,61.548,5144304,0.0,0
2017-09-13,61.548,61.548,60.41,61.093,3886502,0.0,0
2017-09-14,60.455,61.002,60.455,60.546,3658118,0.0,0
2017-09-15,61.002,61.32,59.955,60.911,7891437,0.0,0
2017-09-18,60.911,61.73,60.865,61.685,4834311,0.0,0
2017-09-19,61.548,61.548,60.774,61.093,3572824,0.0,0
2017-09-20,61.548,61.548,60.592,61.002,3560119,0.0,0
2017-09-21,61.002,61.002,59.59,59.773,5684759,0.0,0
2017-09-22,59.181,59.773,58.361,58.999,7956283,0.0,0
2017-09-25,58.771,58.771,57.678,57.861,4593665,0.0,0
2017-09-26,57.861,58.68,57.678,58.543,3733111,0.0,0
2017-09-27,57.678,58.543,57.678,58.27,3028486,0.0,0
2017-09-28,59.181,59.181,57.997,58.043,3341817,0.0,0
2017-09-29,58.043,58.862,57.815,58.862,5663772,0.0,0
2017-10-03,59.181,59.181,58.316,58.999,6185515,0.0,0
2017-10-04,59.181,59.317,58.862,59.181,5261984,0.0,0
2017-10-06,58.953,59.499,58.953,59.363,5630163,0.0,0
2017-10-09,58.953,59.272,58.589,58.862,1765423,0.0,0
2017-10-10,58.725,59.317,58.225,59.317,5058819,0.0,0
2017-10-11,59.636,59.773,58.043,58.543,5883345,0.0,0
2017-10-12,58.817,59.454,58.407,59.363,4436477,0.0,0
2017-10-13,58.771,59.044,58.543,58.999,3484467,0.0,0
2017-10-16,60.683,60.911,59.864,60.546,10352823,0.0,0
2017-10-17,60.182,61.548,60.137,61.32,7823896,0.0,0
2017-10-18,61.32,62.276,61.184,62.276,6209062,0.0,0
2017-10-19,62.367,62.413,60.683,60.956,5510877,0.0,0
2017-10-20,61.275,61.457,60.637,60.729,4358933,0.0,0
2017-10-23,60.729,60.956,59.727,60.0,3765462,0.0,0
2017-10-24,59.727,59.909,58.771,58.908,7252406,0.0,0
2017-10-25,59.09,59.09,58.134,58.361,6833597,0.0,0
2017-10-26,58.27,59.363,58.088,59.181,4046785,0.0,0
2017-10-27,59.09,59.454,58.725,58.999,2791547,0.0,0
2017-10-30,58.725,58.725,58.088,58.452,2552441,0.0,0
2017-10-31,58.134,58.817,58.134,58.407,2646141,0.0,0
2017-11-01,58.452,59.09,58.452,58.908,4604556,0.0,0
2017-11-02,60.956,61.593,60.41,61.002,11663089,0.0,0
2017-11-03,60.82,61.002,60.455,60.592,3215638,0.0,0
2017-11-06,60.683,60.683,58.953,60.091,5278792,0.0,0
2017-11-07,60.41,60.729,60.137,60.501,4611421,0.0,0
2017-11-08,60.046,60.41,59.909,60.273,3914956,0.0,0
2017-11-09,60.273,60.592,59.955,60.364,3895036,0.0,0
2017-11-10,60.364,60.364,59.727,60.0,3725228,0.0,0
2017-11-13,59.499,60.319,58.771,59.317,4659888,0.0,0
2017-11-14,59.044,59.727,58.862,59.727,2518499,0.0,0
2017-11-15,59.727,59.955,59.272,59.955,3647883,0.0,0
2017-11-16,60.137,60.182,59.681,59.818,3975124,0.0,0
2017-11-17,59.59,60.046,59.044,59.272,3856627,0.0,0
2017-11-20,59.499,59.636,58.999,59.408,2852749,0.0,0
2017-11-21,60.046,60.046,58.999,59.454,4608653,0.0,0
2017-11-22,59.864,60.046,59.363,59.408,3719575,0.0,0
2017-11-23,59.044,59.773,58.862,59.181,4824522,0.0,0
2017-11-24,59.272,60.501,58.999,60.273,4962710,0.0,0
2017-11-27,59.955,60.273,59.545,59.818,2664678,0.0,0
2017-11-28,59.408,59.864,59.044,59.363,4833053,0.0,0
2017-11-29,59.408,59.955,59.363,59.499,4786672,0.0,0
2017-11-30,59.499,59.909,58.771,59.864,10398018,0.0,0
2017-12-01,60.091,60.729,59.363,60.364,7012237,0.0,0
2017-12-04,59.909,60.091,58.953,59.545,4600578,0.0,0
2017-12-05,59.181,59.909,59.09,59.272,4366568,0.0,0
2017-12-06,59.727,59.909,58.953,59.317,6280513,0.0,0
2017-12-07,59.727,59.909,59.09,59.636,7710701,0.0,0
2017-12-08,59.818,60.046,59.135,59.909,4986240,0.0,0
2017-12-11,59.181,60.046,59.181,59.636,4470676,0.0,0
2017-12-12,59.272,59.818,59.226,59.818,3214343,0.0,0
2017-12-13,59.955,60.546,59.408,60.137,4472695,0.0,0
2017-12-14,59.636,60.091,59.499,59.818,5101029,0.0,0
2017-12-15,60.046,60.091,59.454,60.091,5753193,0.0,0
2017-12-18,60.364,61.32,60.228,61.184,6520958,0.0,0
2017-12-19,60.82,61.32,60.637,60.82,3320169,0.0,0
2017-12-20,61.912,61.912,61.093,61.912,6659028,0.0,0
2017-12-21,62.823,62.823,61.457,61.502,6271732,0.0,0
2017-12-22,62.276,62.504,61.593,62.504,3412131,0.0,0
2017-12-27,62.094,62.504,62.003,62.094,4791276,0.0,0
2017-12-28,61.821,62.458,61.821,62.231,2866773,0.0,0
2017-12-29,62.641,62.641,62.14,62.185,3527327,0.0,0
2018-01-02,62.595,63.05,62.367,62.732,4424708,0.0,0
2018-01-03,62.641,63.141,62.413,62.823,4223105,0.0,0
2018-01-04,63.05,63.05,62.641,62.959,4126701,0.0,0
2018-01-05,63.096,63.733,62.777,63.733,7914488,0.0,0
2018-01-08,64.461,64.826,63.915,64.416,9099348,0.0,0
2018-01-09,65.099,65.372,64.871,65.235,6360041,0.0,0
2018-01-10,65.463,66.282,65.099,65.782,7770587,0.0,0
2018-01-11,65.144,66.1,65.144,66.055,4707112,0.0,0
2018-01-12,66.51,67.011,66.328,66.601,6645814,0.0,0
2018-01-15,67.193,67.193,66.282,66.601,5478282,0.0,0
2018-01-16,66.328,66.92,66.055,66.556,2858109,0.0,0
2018-01-17,66.92,66.92,65.509,65.918,4635638,0.0,0
2018-01-18,66.465,66.601,65.281,65.554,5728565,0.0,0
2018-01-19,64.689,66.965,64.689,66.965,5662819,0.0,0
2018-01-22,66.965,67.557,66.829,67.466,7554228,0.0,0
2018-01-23,68.149,68.285,67.557,68.285,7058612,0.0,0
2018-01-24,68.285,68.285,67.421,67.921,4384261,0.0,0
2018-01-25,68.285,68.285,67.238,67.375,7810323,0.0,0
2018-01-26,67.193,68.103,67.193,67.739,5313872,0.0,0
2018-01-29,67.83,68.194,67.329,67.648,5731786,0.0,0
2018-01-30,66.738,68.058,66.738,67.83,4684533,0.0,0
2018-01-31,67.83,67.967,66.738,67.967,8572199,0.0,0
2018-02-01,68.285,68.468,66.965,68.24,5320213,0.0,0
2018-02-02,68.285,68.559,67.785,67.921,4905664,0.0,0
2018-02-05,68.012,68.012,66.282,66.601,5331169,0.0,0
2018-02-06,62.641,65.19,62.641,64.416,12030925,0.0,0
2018-02-07,66.282,66.282,63.278,63.733,11072238,0.0,0
2018-02-08,63.187,64.689,63.005,63.369,6092337,0.0,0
2018-02-09,61.867,62.276,60.319,60.774,9002571,0.0,0
2018-02-12,60.182,61.639,60.182,60.501,6077049,0.0,0
2018-02-13,60.501,61.502,60.319,60.729,5278950,0.0,0
2018-02-14,60.364,61.912,60.364,61.685,8651858,0.0,0
2018-02-15,61.958,62.185,60.82,61.229,4890660,0.0,0
2018-02-20,62.823,62.823,60.82,61.912,5208514,0.0,0
2018-02-21,61.639,62.094,61.502,61.912,4308435,0.0,0
2018-02-22,60.637,61.366,60.637,60.911,7037621,0.0,0
2018-02-23,61.32,61.867,61.002,61.502,4109158,0.0,0
2018-02-26,61.502,62.367,61.32,62.185,4645975,0.0,0
2018-02-27,62.276,62.641,61.776,61.867,6589781,0.0,0
2018-02-28,61.912,61.912,61.047,61.639,8763308,0.0,0
2018-03-01,60.501,62.868,60.455,62.823,7693756,0.0,0
2018-03-02,62.823,62.823,61.457,61.912,6205237,0.0,0
2018-03-05,61.229,62.367,59.864,60.228,5345390,0.0,0
2018-03-06,61.593,61.593,60.319,60.82,5216373,0.0,0
2018-03-07,60.82,61.685,60.091,60.182,8244186,0.0,0
2018-03-08,60.637,61.138,60.546,61.002,3245285,0.0,0
2018-03-09,61.548,61.867,61.32,61.411,3752818,0.0,0
2018-03-12,62.641,62.641,61.912,62.367,4250675,0.0,0
2018-03-13,62.777,62.777,62.231,62.686,2531742,0.0,0
2018-03-14,64.006,64.006,62.231,62.868,4437984,0.0,0
2018-03-15,63.278,63.642,62.686,63.642,6057924,0.0,0
2018-03-16,62.914,64.325,62.823,63.733,6709946,0.0,0
2018-03-19,62.367,63.505,61.593,63.369,7270490,0.0,0
2018-03-20,62.549,63.232,62.276,63.232,3594262,0.0,0
2018-03-21,63.688,63.688,62.413,62.686,4731177,0.0,0
2018-03-22,63.232,63.232,60.865,61.093,9541241,0.0,0
2018-03-23,59.181,60.455,59.181,60.319,7486527,0.0,0
2018-03-26,60.091,60.683,59.636,60.501,4278451,0.0,0
2018-03-27,61.685,61.685,59.955,60.228,5230296,0.0,0
2018-03-28,59.59,59.818,59.272,59.499,9813389,0.0,0
2018-03-29,60.0,60.0,59.454,59.955,5641761,0.0,0
2018-04-03,59.636,59.955,59.317,59.636,4874714,0.0,0
2018-04-04,60.046,60.046,58.953,59.09,5683867,0.0,0
2018-04-06,58.817,60.137,58.725,59.727,4905915,0.0,0
2018-04-09,60.637,60.774,59.636,60.0,6933700,0.0,0
2018-04-10,59.408,60.228,58.999,60.091,8317001,0.0,0
2018-04-11,59.499,60.546,59.226,60.455,6784679,0.0,0
2018-04-12,60.546,60.729,59.955,60.683,8955392,0.0,0
2018-04-13,61.002,61.138,60.455,61.047,3449081,0.0,0
2018-04-16,61.411,61.411,60.319,60.455,3244941,0.0,0
2018-04-17,60.546,61.73,60.046,60.82,9437912,0.0,0
2018-04-18,61.73,62.185,61.275,61.958,5526449,0.0,0
2018-04-19,62.732,62.732,61.685,61.685,6039449,0.0,0
2018-04-20,61.685,62.276,61.502,61.593,2933504,0.0,0
2018-04-23,61.002,61.685,60.82,61.184,4991721,0.0,0
2018-04-24,60.41,61.593,60.41,61.548,6772225,0.0,0
2018-04-25,61.685,61.685,60.546,61.138,5070047,0.0,0
2018-04-26,60.82,61.821,60.82,61.366,5847859,0.0,0
2018-04-27,61.912,61.912,60.774,61.002,5725626,0.0,0
2018-04-30,60.956,62.322,60.956,61.958,6266100,0.0,0
2018-05-02,61.457,61.912,61.229,61.502,5213171,0.0,0
2018-05-03,61.229,61.502,60.182,60.956,3555616,0.0,0
2018-05-04,60.41,60.956,59.955,60.182,3522838,0.0,0
2018-05-07,59.636,60.182,59.636,60.091,2102931,0.0,0
2018-05-08,60.501,61.002,60.182,61.002,3862477,0.0,0
2018-05-09,61.184,61.593,61.002,61.138,4382148,0.0,0
2018-05-10,61.229,61.685,61.002,61.002,3113450,0.0,0
2018-05-11,61.776,62.413,61.457,62.094,5043615,0.0,0
2018-05-14,62.185,63.733,62.185,63.278,4130420,0.0,0
2018-05-15,63.862,63.862,63.027,63.027,3741724,1.28,0
2018-05-16,63.445,63.445,62.471,62.888,3203948,0.0,0
2018-05-17,63.491,63.491,61.682,62.053,2923086,0.0,0
2018-05-18,62.332,62.332,61.451,61.868,2911724,0.0,0
2018-05-21,61.729,62.749,61.729,62.378,4165817,0.0,0
2018-05-23,63.213,63.213,61.682,62.193,5249297,0.0,0
2018-05-24,61.682,62.378,61.682,62.285,3716014,0.0,0
2018-05-25,62.703,62.703,61.729,62.053,1959529,0.0,0
2018-05-28,62.007,62.007,61.08,61.311,3097912,0.0,0
2018-05-29,60.94,61.219,60.755,60.987,3014929,0.0,0
2018-05-30,60.106,60.569,59.827,60.291,5697139,0.0,0
2018-05-31,59.827,61.497,59.827,60.755,10168541,0.0,0
2018-06-01,60.987,61.265,60.709,60.94,4712911,0.0,0
2018-06-04,61.682,61.868,60.94,61.775,3083345,0.0,0
2018-06-05,61.265,62.425,61.265,62.1,2806016,0.0,0
2018-06-06,62.796,62.796,62.1,62.378,4020918,0.0,0
2018-06-07,62.888,62.888,62.007,62.378,5070202,0.0,0
2018-06-08,61.682,62.332,61.219,61.497,7151514,0.0,0
2018-06-11,61.358,61.636,60.755,61.311,1630785,0.0,0
2018-06-12,61.636,62.053,60.94,61.914,3378736,0.0,0
2018-06-13,61.358,62.193,61.126,61.404,2913844,0.0,0
2018-06-14,60.894,61.543,60.569,60.894,5718718,0.0,0
2018-06-15,60.291,61.08,60.291,60.894,9869243,0.0,0
2018-06-19,61.543,61.543,59.364,59.503,7311120,0.0,0
2018-06-20,59.827,61.033,59.827,60.106,4830800,0.0,0
2018-06-21,60.291,60.523,59.781,59.92,4404652,0.0,0
2018-06-22,60.059,60.291,59.595,59.781,4042364,0.0,0
2018-06-25,59.364,59.735,58.761,58.807,5808037,0.0,0
2018-06-26,58.25,59.549,57.833,59.271,5333959,0.0,0
2018-06-27,58.714,59.317,57.972,58.343,5448344,0.0,0
2018-06-28,57.508,58.436,57.508,58.065,4461574,0.0,0
2018-06-29,58.204,58.297,57.74,57.787,5386684,0.0,0
2018-07-03,57.648,58.343,56.395,57.926,6735500,0.0,0
2018-07-04,58.39,58.39,56.256,56.581,2785028,0.0,0
2018-07-05,56.998,56.998,56.117,56.581,2701661,0.0,0
2018-07-06,56.256,57.416,56.256,56.72,3665427,0.0,0
2018-07-09,57.277,57.833,57.091,57.508,5870160,0.0,0
2018-07-10,58.436,58.436,57.648,57.972,5939090,0.0,0
2018-07-11,57.137,57.787,57.045,57.508,5268454,0.0,0
2018-07-12,57.323,57.74,57.184,57.184,1790002,0.0,0
2018-07-13,57.369,57.833,56.906,56.998,6731122,0.0,0
2018-07-16,56.952,56.998,56.395,56.674,4076702,0.0,0
2018-07-17,56.952,56.952,55.932,56.024,6086807,0.0,0
2018-07-18,56.117,56.766,55.653,55.885,5003475,0.0,0
2018-07-19,56.256,56.349,55.607,55.746,5314880,0.0,0
2018-07-20,55.653,55.653,54.726,55.329,6840078,0.0,0
2018-07-23,55.421,55.561,54.726,55.05,5564489,0.0,0
2018-07-24,54.819,55.468,54.726,55.004,12912081,0.0,0
2018-07-25,55.468,56.024,55.282,55.885,8609309,0.0,0
2018-07-26,56.488,56.535,55.978,56.164,4623143,0.0,0
2018-07-27,55.839,56.303,55.468,55.653,4829969,0.0,0
2018-07-30,55.653,56.071,55.468,55.932,4478699,0.0,0
2018-07-31,55.839,55.978,55.7,55.7,4796550,0.0,0
2018-08-01,56.21,56.256,55.7,55.7,4486796,0.0,0
2018-08-02,55.7,55.885,53.984,54.262,5980246,0.0,0
2018-08-03,54.262,54.448,53.798,53.798,7276147,0.0,0
2018-08-06,53.937,54.169,53.056,53.242,8131879,0.0,0
2018-08-07,52.963,54.077,52.963,53.659,5471361,0.0,0
2018-08-08,53.613,54.03,53.52,53.891,6239718,0.0,0
2018-08-09,53.705,53.891,53.427,53.705,6063566,0.0,0
2018-08-10,54.03,54.03,53.52,53.659,6455922,0.0,0
2018-08-13,53.474,53.613,52.685,52.963,6716529,0.0,0
2018-08-14,52.963,53.103,52.546,52.778,5844782,0.0,0
2018-08-15,52.5,52.778,51.387,51.572,7355332,0.0,0
2018-08-16,51.108,51.85,51.062,51.479,5853787,0.0,0
2018-08-17,51.665,52.129,51.108,51.34,4666023,0.0,0
2018-08-20,51.062,51.804,51.062,51.711,4790396,0.0,0
2018-08-21,51.99,51.99,51.294,51.433,4527839,0.0,0
2018-08-22,51.155,51.943,51.155,51.758,5746250,0.0,0
2018-08-23,51.479,51.897,50.598,50.598,6787525,0.0,0
2018-08-24,50.691,51.758,50.134,51.479,5153694,0.0,0
2018-08-27,51.943,52.268,51.572,52.175,5001343,0.0,0
2018-08-28,52.221,52.592,51.943,52.592,5889338,0.0,0
2018-08-29,52.639,53.566,52.546,53.52,8603750,0.0,0
2018-08-30,53.334,53.705,52.639,52.685,6457354,0.0,0
2018-08-31,52.592,52.592,51.479,51.897,5572533,0.0,0
2018-09-03,52.804,52.804,51.775,51.915,4163449,0.47,0
2018-09-04,51.915,54.488,51.915,54.394,10458183,0.0,0
2018-09-05,54.301,54.301,52.477,52.617,15559654,0.0,0
2018-09-06,52.944,52.944,52.103,52.617,8363544,0.0,0
2018-09-07,52.57,52.944,52.383,52.523,9839480,0.0,0
2018-09-10,52.383,52.523,51.214,51.401,8844784,0.0,0
2018-09-11,51.167,52.477,50.746,51.915,7116646,0.0,0
2018-09-12,52.009,52.804,51.682,52.056,6019321,0.0,0
2018-09-13,53.038,54.207,53.038,53.973,7740366,0.0,0
2018-09-14,54.02,56.031,53.552,55.61,8909864,0.0,0
2018-09-17,55.002,56.593,54.768,56.312,9018669,0.0,0
2018-09-18,56.312,56.78,55.657,56.359,7515120,0.0,0
2018-09-19,56.499,57.809,56.405,57.06,8876694,0.0,0
2018-09-20,56.686,57.107,56.125,56.405,4002471,0.0,0
2018-09-21,56.593,57.06,56.078,56.826,7616155,0.0,0
2018-09-24,56.125,56.452,55.376,55.751,3337672,0.0,0
2018-09-26,56.593,56.593,55.797,55.938,8113110,0.0,0
2018-09-27,56.031,56.312,55.517,56.125,3434520,0.0,0
2018-09-28,55.938,56.078,54.254,54.956,7765129,0.0,0
2018-10-02,54.348,54.441,53.552,53.693,7529991,0.0,0
2018-10-03,51.448,53.88,51.448,53.646,3392761,0.0,0
2018-10-04,53.599,53.833,52.664,52.898,5116303,0.0,0
2018-10-05,52.523,53.178,52.43,52.851,4149236,0.0,0
2018-10-08,53.599,53.599,52.056,52.383,4570533,0.0,0
2018-10-09,52.056,53.225,51.962,52.944,5800171,0.0,0
2018-10-10,52.196,52.991,52.196,52.523,5359811,0.0,0
2018-10-11,51.635,52.009,50.699,50.933,6196096,0.0,0
2018-10-12,50.887,51.354,50.419,51.12,4978753,0.0,0
2018-10-15,50.84,51.448,50.84,51.354,4387024,0.0,0
2018-10-16,51.495,51.775,50.887,50.887,5980728,0.0,0
2018-10-18,51.167,51.588,51.167,51.307,6934050,0.0,0
2018-10-19,51.12,51.307,50.746,51.074,6791773,0.0,0
2018-10-22,51.261,52.103,51.074,52.009,4372223,0.0,0
2018-10-23,51.728,51.775,50.699,50.746,7297011,0.0,0
2018-10-24,51.074,51.12,50.185,50.232,10329996,0.0,0
2018-10-25,49.577,49.904,48.922,49.343,6639068,0.0,0
2018-10-26,49.577,49.951,49.109,49.203,9125270,0.0,0
2018-10-29,50.091,50.091,49.296,49.53,3986407,0.0,0
2018-10-30,49.203,49.483,48.642,48.688,5376125,0.0,0
2018-10-31,48.174,48.642,47.051,47.613,12437567,0.0,0
2018-11-01,48.221,48.969,48.127,48.875,6472429,0.0,0
2018-11-02,48.642,50.699,48.642,50.232,7413133,0.0,0
2018-11-05,49.764,50.325,49.437,49.53,4233477,0.0,0
2018-11-06,49.764,50.793,49.624,50.653,4193921,0.0,0
2018-11-07,50.512,51.354,50.325,50.933,5877507,0.0,0
2018-11-08,51.448,51.915,51.307,51.448,4758117,0.0,0
2018-11-09,50.653,51.307,49.577,49.811,4477212,0.0,0
2018-11-12,49.577,50.933,49.483,50.653,2643730,0.0,0
2018-11-13,49.109,50.793,49.109,50.606,4498784,0.0,0
2018-11-14,51.074,51.074,50.372,50.606,3053407,0.0,0
2018-11-15,51.448,52.149,50.746,51.869,5751851,0.0,0
2018-11-16,50.933,52.29,50.933,52.009,3956225,0.0,0
2018-11-19,53.131,53.131,52.103,52.757,5222923,0.0,0
2018-11-20,52.009,52.336,51.261,51.307,3632444,0.0,0
2018-11-21,50.325,50.98,49.858,50.325,8676453,0.0,0
2018-11-22,50.793,50.933,50.325,50.372,3714773,0.0,0
2018-11-23,50.512,50.699,49.67,50.559,3942174,0.0,0
2018-11-26,51.12,52.196,50.84,51.962,3811420,0.0,0
2018-11-27,51.401,51.962,51.12,51.354,4580885,0.0,0
2018-11-28,50.793,52.336,50.793,52.149,3309881,0.0,0
2018-11-29,53.131,53.786,52.29,52.383,7316641,0.0,0
2018-11-30,53.085,53.085,52.477,52.711,8843190,0.0,0
2018-12-03,53.506,54.488,52.851,54.16,9082461,0.0,0
2018-12-04,53.646,53.833,52.944,53.459,6324413,0.0,0
2018-12-05,52.664,53.459,52.477,53.085,3035032,0.0,0
2018-12-06,51.962,52.617,51.728,52.57,4172118,0.0,0
2018-12-07,54.114,54.16,52.991,53.131,4466992,0.0,0
2018-12-10,51.635,52.898,51.588,51.869,3894442,0.0,0
2018-12-11,51.354,52.29,51.12,51.682,3774782,0.0,0
2018-12-12,52.149,53.412,51.541,53.272,4627920,0.0,0
2018-12-13,53.599,53.693,52.243,53.646,5517533,0.0,0
2018-12-14,53.786,53.786,52.757,53.74,5198240,0.0,0
2018-12-17,53.552,53.786,53.085,53.786,4714223,0.0,0
2018-12-18,53.786,54.628,53.272,54.067,6995639,0.0,0
2018-12-19,53.786,55.657,53.74,55.376,7110671,0.0,0
2018-12-20,54.675,55.143,52.57,53.786,7480765,0.0,0
2018-12-21,52.383,53.319,52.243,53.319,11134235,0.0,0
2018-12-24,52.383,53.319,52.383,53.319,1932011,0.0,0
2018-12-27,53.88,53.88,52.43,52.664,4255986,0.0,0
2018-12-28,53.085,53.459,52.243,53.085,4124026,0.0,0
2018-12-31,53.412,53.88,53.272,53.599,1758193,0.0,0
2019-01-02,53.88,53.88,51.354,51.915,5688232,0.0,0
2019-01-03,51.915,52.57,51.635,52.149,3933341,0.0,0
2019-01-04,52.57,55.049,52.009,55.049,7569848,0.0,0
2019-01-07,56.593,56.967,56.125,56.593,6390731,0.0,0
2019-01-08,56.967,58.931,56.359,58.463,9727048,0.0,0
2019-01-09,59.399,60.381,58.978,59.492,12186105,0.0,0
2019-01-10,59.446,60.007,58.557,59.071,6723502,0.0,0
2019-01-11,60.474,60.474,58.931,59.96,4471262,0.0,0
2019-01-14,59.118,59.586,57.621,58.276,5610024,0.0,0
2019-01-15,58.931,59.679,58.51,59.258,4977255,0.0,0
2019-01-16,58.089,58.791,57.996,58.744,5638594,0.0,0
2019-01-17,58.463,58.51,57.621,58.51,5031798,0.0,0
2019-01-18,58.931,59.773,58.089,59.352,4011946,0.0,0
2019-01-21,59.165,59.679,58.744,59.118,2485813,0.0,0
2019-01-22,58.697,59.586,58.697,59.258,3177150,0.0,0
2019-01-23,58.931,60.241,58.931,59.679,4365378,0.0,0
2019-01-24,59.633,60.474,59.305,60.007,4541856,0.0,0
2019-01-25,59.913,61.27,59.913,60.802,5123956,0.0,0
2019-01-28,61.27,61.27,60.287,60.942,4614079,0.0,0
2019-01-29,60.147,61.176,60.054,61.083,5194841,0.0,0
2019-01-30,60.615,62.018,60.241,61.176,7294888,0.0,0
2019-01-31,60.334,61.55,60.334,61.503,5188775,0.0,0
2019-02-01,61.924,61.924,60.194,60.568,5403079,0.0,0
2019-02-04,59.726,60.568,59.446,60.147,4752941,0.0,0
2019-02-08,58.51,60.1,58.417,59.866,8903448,0.0,0
2019-02-11,59.399,60.708,59.399,60.708,3200538,0.0,0
2019-02-12,60.708,61.223,59.82,60.895,3465961,0.0,0
2019-02-13,61.503,61.924,60.942,61.457,4508381,0.0,0
2019-02-14,61.55,61.878,60.568,61.223,5704676,0.0,0
2019-02-15,60.428,61.503,59.96,60.1,5087876,0.0,0
2019-02-18,60.802,61.27,60.662,60.895,3004117,0.0,0
2019-02-19,61.27,61.644,60.381,61.457,3053065,0.0,0
2019-02-20,62.111,62.111,60.989,61.831,4866405,0.0,0
2019-02-21,61.129,62.205,61.129,62.205,5264566,0.0,0
2019-02-22,61.41,62.673,61.27,62.486,3375704,0.0,0
2019-02-25,62.86,62.86,61.457,61.691,3552108,0.0,0
2019-02-26,61.223,61.691,60.989,61.644,4976180,0.0,0
2019-02-27,62.345,62.86,61.55,62.86,6669332,0.0,0
2019-02-28,62.252,62.486,60.615,60.942,8806576,0.0,0
2019-03-01,60.1,60.521,59.679,59.913,6205753,0.0,0
2019-03-04,59.446,60.568,58.978,59.96,6382285,0.0,0
2019-03-05,58.931,60.241,58.931,59.866,5216892,0.0,0
2019-03-06,59.773,59.773,59.118,59.539,5861607,0.0,0
2019-03-07,59.212,60.054,58.604,59.82,5171314,0.0,0
2019-03-08,58.65,59.446,58.557,58.791,5815854,0.0,0
2019-03-11,57.996,59.165,57.996,59.165,2460218,0.0,0
2019-03-12,59.773,60.381,59.352,60.381,4498785,0.0,0
2019-03-13,59.633,60.802,59.633,60.615,3824387,0.0,0
2019-03-14,60.334,61.457,60.241,61.316,4820415,0.0,0
2019-03-15,61.27,62.205,61.083,61.503,6363646,0.0,0
2019-03-18,62.158,62.158,61.036,61.971,4312016,0.0,0
2019-03-19,61.691,63.281,61.691,63.094,5070025,0.0,0
2019-03-20,63.421,63.421,62.486,63.14,7429883,0.0,0
2019-03-21,63.608,63.608,62.252,62.86,5507189,0.0,0
2019-03-22,63.468,63.795,62.953,63.795,9308631,0.0,0
2019-03-25,62.486,63.421,62.392,63.374,3775670,0.0,0
2019-03-26,64.076,64.076,63.468,64.029,6363647,0.0,0
2019-03-27,64.544,65.432,64.123,65.385,7221904,0.0,0
2019-03-28,64.45,65.713,64.45,65.713,3980924,0.0,0
2019-03-29,65.198,65.853,65.152,65.292,5961481,0.0,0
2019-04-01,65.9,67.209,65.479,67.209,7339916,0.0,0
2019-04-02,66.508,67.49,65.947,67.303,5592317,0.0,0
2019-04-03,67.817,67.817,67.022,67.537,6580484,0.0,0
2019-04-04,67.443,67.537,65.853,66.414,5826849,0.0,0
2019-04-08,66.648,66.742,65.572,65.993,8653683,0.0,0
2019-04-09,66.789,66.789,65.572,65.947,6386569,0.0,0
2019-04-10,66.274,66.274,65.479,65.713,5449989,0.0,0
2019-04-11,65.479,65.619,63.702,64.403,4716425,0.0,0
2019-04-12,63.655,64.31,63.328,64.216,4910403,0.0,0
2019-04-15,64.029,65.058,63.515,63.515,5107975,0.0,0
2019-04-16,63.515,63.515,62.205,62.345,9107994,0.0,0
2019-04-17,62.018,62.719,62.018,62.392,6341410,0.0,0
2019-04-18,62.345,62.532,61.597,61.784,5824012,0.0,0
2019-04-23,61.27,61.55,60.895,61.27,6981647,0.0,0
2019-04-24,61.41,61.55,60.474,60.708,9041497,0.0,0
2019-04-25,60.334,60.615,60.1,60.194,32070710,0.0,0
2019-04-26,59.866,60.147,59.586,59.679,7915645,0.0,0
2019-04-29,60.054,60.1,59.399,59.586,8105108,0.0,0
2019-04-30,59.446,59.586,58.838,58.931,9716643,0.0,0
2019-05-02,59.071,59.679,59.025,59.352,7582271,0.0,0
2019-05-03,58.931,59.82,58.744,59.586,9062899,0.0,0
2019-05-06,58.229,58.791,57.715,57.902,8879153,0.0,0
2019-05-07,58.042,58.931,58.042,58.51,8081946,0.0,0
2019-05-08,57.855,59.212,57.855,58.838,9304875,0.0,0
2019-05-09,58.323,58.697,57.528,57.715,8906719,0.0,0
2019-05-10,57.996,58.557,57.528,58.042,8692526,0.0,0
2019-05-14,57.434,57.434,56.686,57.247,10781845,0.0,0
2019-05-15,56.733,57.107,56.452,56.639,8225986,0.0,0
2019-05-16,56.593,58.136,56.593,57.715,6671388,0.0,0
2019-05-17,57.668,58.463,56.593,56.593,9976681,0.0,0
2019-05-20,56.639,57.528,56.593,57.294,8224165,0.0,0
2019-05-21,57.562,58.52,57.035,57.371,6197306,1.43,0
2019-05-22,57.131,57.419,56.509,56.988,4921158,0.0,0
2019-05-23,56.173,56.7,55.742,55.838,6772157,0.0,0
2019-05-24,55.838,56.7,55.599,56.269,5291856,0.0,0
2019-05-27,56.173,56.413,55.647,55.79,2379655,0.0,0
2019-05-28,55.599,56.221,55.599,56.03,9773576,0.0,0
2019-05-29,55.551,55.934,55.551,55.886,4641904,0.0,0
2019-05-30,55.742,56.078,54.833,55.072,5223733,0.0,0
2019-05-31,54.833,55.503,53.971,54.306,8713462,0.0,0
2019-06-03,53.923,54.928,53.923,54.593,4292043,0.0,0
2019-06-04,54.402,54.833,54.114,54.497,8910551,0.0,0
2019-06-05,55.79,55.79,54.593,55.407,8166292,0.0,0
2019-06-06,55.024,56.221,54.689,55.934,5364691,0.0,0
2019-06-10,55.359,57.466,55.359,57.419,7515727,0.0,0
2019-06-11,57.945,58.424,56.988,57.227,6616456,0.0,0
2019-06-12,56.796,57.083,55.742,56.269,6072032,0.0,0
2019-06-13,55.599,56.078,54.689,56.03,5628802,0.0,0
2019-06-14,56.221,56.413,55.886,56.413,6475618,0.0,0
2019-06-17,56.7,57.179,55.934,56.126,4211043,0.0,0
2019-06-18,56.557,56.988,55.886,56.892,4959297,0.0,0
2019-06-19,58.52,58.52,57.706,57.993,4769899,0.0,0
2019-06-20,57.993,58.52,57.706,58.376,3620207,0.0,0
2019-06-21,58.233,58.759,58.089,58.328,9192170,0.0,0
2019-06-24,58.041,58.855,57.897,58.712,3558079,0.0,0
2019-06-25,58.616,58.855,58.424,58.712,5334717,0.0,0
2019-06-26,58.281,58.52,57.945,58.328,5464894,0.0,0
2019-06-27,58.759,59.143,58.328,59.095,4226524,0.0,0
2019-06-28,59.19,59.19,58.472,58.568,6568240,0.0,0
2019-07-02,59.669,59.669,58.568,58.855,6457304,0.0,0
2019-07-03,58.52,59.574,58.472,59.334,4074059,0.0,0
2019-07-04,59.669,59.861,58.999,59.095,2863806,0.0,0
2019-07-05,59.382,59.526,58.903,59.19,2156333,0.0,0
2019-07-08,58.424,58.999,57.993,58.616,4207137,0.0,0
2019-07-09,58.233,58.616,57.466,57.514,4184966,0.0,0
2019-07-10,57.945,57.945,56.892,57.179,4456850,0.0,0
2019-07-11,57.85,58.376,57.562,57.897,3579496,0.0,0
2019-07-12,57.275,58.712,57.275,58.376,3654003,0.0,0
2019-07-15,57.802,58.328,57.179,57.61,3591612,0.0,0
2019-07-16,57.466,57.945,57.466,57.802,3839443,0.0,0
2019-07-17,57.083,57.945,57.083,57.945,3087668,0.0,0
2019-07-18,57.371,58.089,57.371,58.089,4479128,0.0,0
2019-07-19,57.945,58.712,57.802,58.376,4981624,0.0,0
2019-07-22,58.424,59.143,58.089,58.951,5376964,0.0,0
2019-07-23,58.807,59.143,58.185,58.568,6423290,0.0,0
2019-07-24,58.903,60.34,58.855,59.478,6256235,0.0,0
2019-07-25,59.765,60.436,59.382,60.148,4765073,0.0,0
2019-07-26,60.34,60.531,59.621,60.052,5174868,0.0,0
2019-07-29,60.34,60.34,58.137,58.52,6156984,0.0,0
2019-07-30,58.616,59.047,58.281,58.52,3776750,0.0,0
2019-07-31,58.185,58.281,56.509,56.844,6471110,0.0,0
2019-08-01,55.742,56.317,54.402,54.785,9898894,0.0,0
2019-08-02,52.678,53.923,52.678,53.779,8881010,0.0,0
2019-08-05,52.678,53.013,50.81,51.049,9860582,0.0,0
2019-08-06,50.044,50.714,49.325,50.427,10036014,0.0,0
2019-08-07,50.379,51.337,50.092,51.145,9858753,0.0,0
2019-08-08,50.906,52.294,50.906,51.433,8776824,0.0,0
2019-08-09,51.433,51.768,50.954,51.289,3929234,0.0,0
2019-08-12,51.289,51.624,50.427,50.427,5134015,0.0,0
2019-08-13,49.804,50.331,49.182,49.23,7398792,0.0,0
2019-08-14,49.709,50.475,47.793,48.032,9585081,0.0,0
2019-08-15,47.314,49.709,46.931,49.325,11401336,0.0,0
2019-08-16,49.804,51.768,49.23,51.337,12758553,0.0,0
2019-08-19,52.103,52.821,51.576,52.725,9293474,0.0,0
2019-08-20,54.306,54.306,52.63,53.156,8334858,0.0,0
2019-08-21,53.061,53.396,52.582,53.061,4225754,0.0,0
2019-08-22,53.444,53.444,51.768,51.959,5402127,0.0,0
2019-08-23,51.48,52.725,51.097,52.534,4561813,0.0,0
2019-08-26,50.762,51.72,49.996,51.528,9410039,0.0,0
2019-08-27,51.911,52.486,51.768,52.007,11512837,0.0,0
2019-08-28,51.816,52.869,51.816,52.678,6372493,0.0,0
2019-08-29,53.635,53.635,51.911,52.199,7559781,0.0,0
2019-08-30,52.39,52.678,50.331,51.002,8878808,0.0,0
2019-09-02,51.069,51.263,49.957,50.586,3379675,0.52,0
2019-09-03,50.392,50.779,49.812,50.054,4837434,0.0,0
2019-09-04,50.586,55.035,50.537,54.358,13080559,0.0,0
2019-09-05,54.116,54.116,52.52,53.391,8112881,0.0,0
2019-09-06,54.164,54.261,53.294,54.019,7400865,0.0,0
2019-09-09,53.777,54.358,53.584,54.068,3610502,0.0,0
2019-09-10,54.213,54.454,53.1,53.632,7140539,0.0,0
2019-09-11,53.826,55.954,53.536,55.228,8211563,0.0,0
2019-09-12,55.518,55.809,54.841,55.132,5063589,0.0,0
2019-09-13,55.035,55.76,54.551,55.615,4038335,0.0,0
2019-09-16,54.261,55.18,54.261,54.648,4429328,0.0,0
2019-09-17,54.164,54.89,54.019,54.648,4346385,0.0,0
2019-09-18,54.454,54.938,53.777,54.019,3966923,0.0,0
2019-09-19,54.309,54.309,52.713,52.955,3868240,0.0,0
2019-09-20,53.777,54.358,52.665,52.665,8034759,0.0,0
2019-09-23,53.245,53.342,51.746,52.327,4820059,0.0,0
2019-09-24,52.278,52.617,51.795,51.988,5115048,0.0,0
2019-09-25,51.359,52.133,51.118,51.456,4165039,0.0,0
2019-09-26,51.504,52.375,51.263,51.359,3910567,0.0,0
2019-09-27,51.746,51.746,50.779,51.456,4327132,0.0,0
2019-09-30,50.779,51.988,50.682,51.359,5244035,0.0,0
2019-10-02,50.779,52.182,50.344,52.133,5936117,0.0,0
2019-10-03,51.698,52.085,50.972,51.843,6099146,0.0,0
2019-10-04,51.553,52.085,50.682,51.118,6583529,0.0,0
2019-10-08,50.827,51.601,50.392,50.537,5597893,0.0,0
2019-10-09,50.102,50.344,49.231,49.57,7777908,0.0,0
2019-10-10,49.57,49.812,49.038,49.183,5751922,0.0,0
2019-10-11,49.57,51.214,49.522,51.021,6297828,0.0,0
2019-10-14,51.118,51.456,50.441,50.972,4808910,0.0,0
2019-10-15,50.972,51.021,50.295,50.586,4821512,0.0,0
2019-10-16,50.295,52.23,49.715,51.891,11283140,0.0,0
2019-10-17,51.456,53.874,51.456,52.036,8883460,0.0,0
2019-10-18,51.795,52.423,51.214,51.65,6060129,0.0,0
2019-10-21,51.698,52.472,51.408,51.795,9302295,0.0,0
2019-10-22,51.988,52.036,50.779,51.94,5342894,0.0,0
2019-10-23,51.746,52.085,50.827,51.118,5468071,0.0,0
2019-10-24,50.924,51.601,50.924,51.601,4149027,0.0,0
2019-10-25,51.456,51.746,51.311,51.65,2680122,0.0,0
2019-10-28,51.698,52.955,51.698,52.762,5987167,0.0,0
2019-10-29,52.955,53.584,52.665,53.052,7030218,0.0,0
2019-10-30,52.472,53.391,52.472,52.859,8882247,0.0,0
2019-10-31,52.713,53.197,52.665,52.907,6389468,0.0,0
2019-11-01,52.085,53.052,52.085,52.955,4594141,0.0,0
2019-11-04,53.052,53.923,52.955,53.923,5695645,0.0,0
2019-11-05,53.923,53.923,52.327,53.004,7124636,0.0,0
2019-11-06,52.52,53.536,52.52,53.391,3896352,0.0,0
2019-11-07,53.584,54.068,53.342,53.777,4745688,0.0,0
2019-11-08,54.454,54.454,53.294,53.584,6170015,0.0,0
2019-11-11,52.617,53.149,51.504,51.988,9405330,0.0,0
2019-11-12,52.423,52.423,51.359,51.94,4395212,0.0,0
2019-11-13,51.311,51.408,50.295,50.682,9408340,0.0,0
2019-11-14,50.344,51.214,50.15,50.295,7791264,0.0,0
2019-11-15,50.441,51.408,49.715,50.15,5546633,0.0,0
2019-11-18,50.15,50.972,50.102,50.731,3846301,0.0,0
2019-11-19,50.295,52.423,50.15,52.133,7310309,0.0,0
2019-11-20,51.891,52.133,51.553,52.085,3802747,0.0,0
2019-11-21,51.456,51.456,50.295,51.263,7927431,0.0,0
2019-11-22,51.456,51.94,50.586,51.069,5559664,0.0,0
2019-11-25,51.746,52.665,51.263,51.94,5134945,0.0,0
2019-11-26,52.133,52.423,50.731,50.731,12590384,0.0,0
2019-11-27,51.118,51.504,51.021,51.166,6376373,0.0,0
2019-11-28,50.054,52.133,50.054,51.456,4769214,0.0,0
2019-11-29,50.779,51.021,50.295,50.344,6984226,0.0,0
2019-12-02,50.731,51.021,50.102,50.344,2865519,0.0,0
2019-12-03,50.15,50.344,48.99,50.15,4079905,0.0,0
2019-12-04,49.038,49.763,49.038,49.231,4544759,0.0,0
2019-12-05,49.667,49.763,48.99,49.425,2919799,0.0,0
2019-12-06,49.715,50.102,49.618,50.054,2742626,0.0,0
2019-12-09,49.909,50.586,49.86,50.005,3554250,0.0,0
2019-12-10,49.425,49.957,49.183,49.618,4161220,0.0,0
2019-12-11,49.909,50.102,49.57,50.005,5252583,0.0,0
2019-12-12,50.392,51.118,50.392,50.924,5418421,0.0,0
2019-12-13,51.359,52.617,51.359,52.52,7743776,0.0,0
2019-12-16,51.746,52.665,51.746,51.94,4820898,0.0,0
2019-12-17,52.036,52.133,51.263,51.746,9173849,0.0,0
2019-12-18,51.553,52.085,51.456,51.891,6306408,0.0,0
2019-12-19,51.746,52.665,51.698,52.23,5432754,0.0,0
2019-12-20,52.81,53.004,52.327,52.81,6849138,0.0,0
2019-12-23,52.81,53.245,52.713,53.1,5108834,0.0,0
2019-12-24,53.729,53.729,52.81,53.004,1472836,0.0,0
2019-12-27,53.245,53.632,53.149,53.439,2743870,0.0,0
2019-12-30,53.487,53.971,53.245,53.971,3609764,0.0,0
2019-12-31,53.487,54.454,53.487,54.406,3071107,0.0,0
2020-01-02,54.261,54.793,53.681,54.116,3712586,0.0,0
2020-01-03,54.938,54.938,53.681,53.826,3623342,0.0,0
2020-01-06,53.729,53.729,52.665,53.052,4171199,0.0,0
2020-01-07,53.052,53.342,52.617,52.859,5291589,0.0,0
2020-01-08,52.423,52.665,51.988,52.423,5506984,0.0,0
2020-01-09,53.149,53.391,52.423,53.391,4760029,0.0,0
2020-01-10,53.777,54.164,53.487,54.019,5503835,0.0,0
2020-01-13,54.841,54.986,54.116,54.841,5778838,0.0,0
2020-01-14,55.277,55.325,54.164,54.406,7450736,0.0,0
2020-01-15,54.938,54.938,53.439,53.584,4782457,0.0,0
2020-01-16,53.536,54.164,52.713,54.164,4079545,0.0,0
2020-01-17,54.648,55.035,53.971,54.6,3828087,0.0,0
2020-01-20,54.938,55.132,54.068,54.164,1839041,0.0,0
2020-01-21,52.568,53.487,52.52,52.713,5416539,0.0,0
2020-01-22,52.713,52.762,51.94,52.472,4709673,0.0,0
2020-01-23,51.553,52.423,51.311,51.698,4977274,0.0,0
2020-01-24,52.133,52.133,51.311,51.65,2011235,0.0,0
2020-01-29,48.99,50.199,48.99,49.909,10033453,0.0,0
2020-01-30,50.054,50.054,48.796,48.941,8677977,0.0,0
2020-01-31,49.28,49.522,48.458,48.554,6410092,0.0,0
2020-02-03,48.071,48.7,47.684,47.829,6586794,0.0,0
2020-02-04,47.732,48.796,47.732,48.409,11140716,0.0,0
2020-02-05,48.216,48.893,48.119,48.603,9443513,0.0,0
2020-02-06,48.7,49.957,48.7,49.57,20115807,0.0,0
2020-02-07,48.99,49.667,48.99,49.57,8380519,0.0,0
2020-02-10,48.845,49.812,48.845,49.377,2549728,0.0,0
2020-02-11,49.618,50.102,49.328,49.57,3564453,0.0,0
2020-02-12,49.377,49.86,49.086,49.667,5931801,0.0,0
2020-02-13,49.812,50.295,49.57,49.909,4411800,0.0,0
2020-02-14,49.763,50.247,49.667,50.15,4360201,0.0,0
2020-02-17,50.392,50.537,50.102,50.295,2019952,0.0,0
2020-02-18,49.618,49.909,49.328,49.425,3144122,0.0,0
2020-02-19,49.763,49.909,49.377,49.763,4131417,0.0,0
2020-02-20,49.812,49.86,48.99,49.086,4589954,0.0,0
2020-02-21,48.748,48.893,48.264,48.409,6078074,0.0,0
2020-02-24,48.264,48.313,47.877,47.974,6534171,0.0,0
2020-02-25,47.781,48.409,47.684,47.974,5030714,0.0,0
2020-02-26,47.587,48.264,47.394,47.974,3770523,0.0,0
2020-02-27,47.442,48.409,47.442,48.216,4963693,0.0,0
2020-02-28,47.394,47.829,47.007,47.104,11764017,0.0,0
2020-03-02,47.2,47.539,46.813,46.813,8043765,0.0,0
2020-03-03,46.959,47.297,46.62,46.62,7280439,0.0,0
2020-03-04,46.427,46.862,46.33,46.572,7573912,0.0,0
2020-03-05,47.297,47.732,46.523,47.539,10828081,0.0,0
2020-03-06,47.587,47.587,46.185,46.185,7978844,0.0,0
2020-03-09,46.378,46.378,46.378,46.378,0,0.0,0
2020-03-10,43.912,43.912,43.912,43.912,0,0.0,0
2020-03-11,45.121,45.121,43.912,44.154,10504689,0.0,0
2020-03-12,43.573,43.622,41.784,41.977,13976973,0.0,0
2020-03-13,39.124,41.107,38.786,40.72,21529512,0.0,0
2020-03-16,38.834,41.349,38.834,39.801,15109936,0.0,0
2020-03-17,39.704,39.704,39.704,39.704,0,0.0,0
2020-03-18,38.157,38.979,35.787,35.932,18191806,0.0,0
2020-03-19,35.787,36.222,32.305,33.272,19734066,0.0,0
2020-03-20,34.626,38.35,34.53,37.77,33815187,0.0,0
2020-03-23,34.143,35.787,33.949,34.24,24097582,0.0,0
2020-03-24,35.013,36.029,34.626,35.739,19335953,0.0,0
2020-03-25,36.754,37.867,36.561,37.673,13204386,0.0,0
2020-03-26,37.528,38.205,37.093,37.77,8719015,0.0,0
2020-03-27,39.656,40.043,39.124,39.656,14738551,0.0,0
2020-03-30,39.269,39.995,38.64,39.366,12659030,0.0,0
2020-03-31,39.559,41.204,39.559,41.058,15479572,0.0,0
2020-04-01,40.768,41.881,40.14,41.252,12856430,0.0,0
2020-04-02,40.575,41.977,40.14,41.736,10201774,0.0,0
2020-04-03,41.204,42.122,41.204,42.122,8620171,0.0,0
2020-04-06,42.799,43.477,41.881,43.477,8147828,0.0,0
2020-04-07,44.009,44.492,43.331,44.444,11595305,0.0,0
2020-04-08,44.057,44.831,43.912,44.395,8424286,0.0,0
2020-04-09,44.686,45.072,44.202,44.976,6415141,0.0,0
2020-04-14,44.976,47.152,44.782,46.668,12966307,0.0,0
2020-04-15,46.668,47.104,45.314,45.653,13502777,0.0,0
2020-04-16,44.927,45.653,44.686,45.604,7331695,0.0,0
2020-04-17,46.136,46.62,45.749,46.233,6906264,0.0,0
2020-04-20,46.62,46.717,45.508,45.556,4487154,0.0,0
2020-04-21,45.314,45.798,45.072,45.314,10223641,0.0,0
2020-04-22,44.54,45.653,44.54,45.266,6194047,0.0,0
2020-04-23,46.33,46.717,45.266,45.943,7244090,0.0,0
2020-04-24,45.653,45.798,45.314,45.411,5587187,0.0,0
2020-04-27,45.121,46.62,45.024,46.523,4870755,0.0,0
2020-04-28,46.427,47.49,46.233,47.297,7169429,0.0,0
2020-04-29,47.684,48.071,47.007,47.394,6592028,0.0,0
2020-05-04,45.266,46.62,45.266,46.233,13873611,0.0,0
2020-05-05,47.2,47.2,46.136,46.523,5555000,0.0,0
2020-05-06,46.136,47.249,46.136,46.959,9133966,0.0,0
2020-05-07,46.427,46.91,46.233,46.572,8605562,0.0,0
2020-05-08,46.813,47.2,46.523,47.104,8956853,0.0,0
2020-05-11,47.394,48.893,47.345,48.264,7248594,0.0,0
2020-05-12,47.394,47.636,46.523,46.668,10770322,0.0,0
2020-05-13,46.33,46.62,45.991,46.33,9943074,0.0,0
2020-05-14,45.701,45.846,44.589,45.604,11626187,0.0,0
2020-05-15,44.782,45.701,44.734,45.459,5128702,0.0,0
2020-05-18,44.879,46.668,44.879,46.62,5834201,0.0,0
2020-05-19,47.55,48.0,47.25,47.6,13728521,1.58,0
2020-05-20,47.4,47.45,46.85,47.15,8270139,0.0,0
2020-05-21,47.7,47.7,46.2,46.5,4901102,0.0,0
2020-05-22,45.85,45.9,42.4,42.6,23120297,0.0,0
2020-05-25,41.75,42.4,40.85,41.55,13276234,0.0,0
2020-05-26,42.0,43.2,41.65,42.45,10702101,0.0,0
2020-05-27,42.05,42.75,41.6,42.5,10556353,0.0,0
2020-05-28,41.6,42.55,41.05,41.75,12631101,0.0,0
2020-05-29,40.55,42.45,40.55,42.15,19733560,0.0,0
2020-06-01,43.5,44.3,43.05,43.45,9959682,0.0,0
2020-06-02,43.0,43.9,42.8,43.75,8681927,0.0,0
2020-06-03,44.0,44.3,43.3,43.75,13943876,0.0,0
2020-06-04,44.05,44.2,43.25,43.85,9356647,0.0,0
2020-06-05,43.45,46.3,43.45,46.15,11920572,0.0,0
2020-06-08,46.8,47.1,46.4,46.75,9086648,0.0,0
2020-06-09,46.9,48.05,46.65,47.8,8351659,0.0,0
2020-06-10,47.8,48.3,47.05,47.85,7290915,0.0,0
2020-06-11,47.7,47.8,46.25,46.4,7727004,0.0,0
2020-06-12,45.3,47.0,45.05,47.0,7751294,0.0,0
2020-06-15,45.8,46.8,45.55,45.95,6525248,0.0,0
2020-06-16,47.25,47.7,46.7,47.1,6338283,0.0,0
2020-06-17,47.1,47.7,46.6,47.7,4831709,0.0,0
2020-06-18,47.75,47.8,46.9,47.5,4955198,0.0,0
2020-06-19,47.9,48.0,46.85,48.0,10895858,0.0,0
2020-06-22,47.9,47.9,46.95,47.7,5285461,0.0,0
2020-06-23,47.0,48.15,46.65,47.8,5308648,0.0,0
2020-06-24,47.0,47.95,46.75,47.95,5741472,0.0,0
2020-06-26,47.75,47.75,47.1,47.3,6769059,0.0,0
2020-06-29,47.65,47.65,46.1,46.5,5947502,0.0,0
2020-06-30,46.55,46.85,45.75,46.2,10433809,0.0,0
2020-07-02,46.1,47.5,46.1,47.05,11152762,0.0,0
2020-07-03,47.5,47.95,47.4,47.75,5504164,0.0,0
2020-07-06,48.05,49.4,47.85,49.2,10419263,0.0,0
2020-07-07,49.0,49.4,47.7,47.9,10262265,0.0,0
2020-07-08,48.2,48.65,47.15,47.75,7668612,0.0,0
2020-07-09,48.0,48.05,46.75,46.9,9307768,0.0,0
2020-07-10,46.55,47.3,46.0,46.1,8785636,0.0,0
2020-07-13,46.15,46.7,45.95,46.1,3939846,0.0,0
2020-07-14,46.0,46.15,45.3,45.95,5867448,0.0,0
2020-07-15,46.25,46.55,45.3,45.85,5137426,0.0,0
2020-07-16,46.0,46.1,45.15,45.4,5897731,0.0,0
2020-07-17,45.6,45.8,44.7,44.95,7590390,0.0,0
2020-07-20,44.0,44.95,44.0,44.35,6311803,0.0,0
2020-07-21,43.7,44.4,43.7,44.4,11745384,0.0,0
2020-07-22,43.95,44.4,43.15,43.15,10440962,0.0,0
2020-07-23,43.05,43.55,42.95,43.25,6692076,0.0,0
2020-07-24,43.0,43.95,42.95,43.3,8107809,0.0,0
2020-07-27,43.4,43.8,42.5,42.6,7713642,0.0,0
2020-07-28,42.85,42.95,41.6,41.7,12008860,0.0,0
2020-07-29,41.55,42.8,41.55,42.7,5992047,0.0,0
2020-07-30,42.7,43.95,42.6,42.7,6952724,0.0,0
2020-07-31,42.35,43.25,42.35,43.05,5141706,0.0,0
2020-08-03,42.4,42.9,41.95,42.75,6692659,0.0,0
2020-08-04,43.15,44.0,42.7,43.75,6628449,0.0,0
2020-08-05,44.1,45.15,43.9,45.05,10403970,0.0,0
2020-08-06,45.2,45.6,44.1,44.55,4703997,0.0,0
2020-08-07,42.9,42.9,40.35,41.45,32650620,0.0,0
2020-08-10,41.2,41.5,40.85,41.15,7778969,0.0,0
2020-08-11,41.5,41.95,41.35,41.45,17163880,0.0,0
2020-08-12,41.45,43.25,41.3,43.25,12641210,0.0,0
2020-08-13,43.15,43.15,42.35,42.95,9275134,0.0,0
2020-08-14,42.35,43.35,42.35,43.0,6506084,0.0,0
2020-08-17,43.0,43.25,42.4,42.6,7428047,0.0,0
2020-08-18,42.8,42.95,42.3,42.95,4877823,0.0,0
2020-08-19,43.75,43.75,42.45,42.7,4057662,0.0,0
2020-08-20,42.75,42.75,41.75,42.05,7124795,0.0,0
2020-08-21,42.15,42.5,41.8,42.15,8506282,0.0,0
2020-08-24,42.7,43.45,42.5,42.8,8514655,0.0,0
2020-08-25,42.8,43.0,42.2,42.6,6969821,0.0,0
2020-08-26,42.65,42.8,42.2,42.6,5616728,0.0,0
2020-08-27,42.3,42.55,41.65,41.9,12538726,0.0,0
2020-08-28,41.7,42.65,41.7,41.9,7438780,0.0,0
2020-08-31,42.45,43.0,41.9,42.1,10883517,0.0,0
